[gd_resource type="AudioBusLayout" load_steps=2 format=2]

[sub_resource type="AudioEffectReverb" id=1]
resource_name = "Reverb"
room_size = 0.33
damping = 0.24
spread = 0.67
hipass = 0.5
wet = 1.0

[resource]
bus/1/name = "reverb"
bus/1/solo = false
bus/1/mute = false
bus/1/bypass_fx = false
bus/1/volume_db = 0.0
bus/1/send = "Master"
bus/1/effect/0/effect = SubResource( 1 )
bus/1/effect/0/enabled = true
