[gd_scene load_steps=23 format=2]

[ext_resource path="res://Scripts/Car.gd" type="Script" id=1]
[ext_resource path="res://Scripts/Suspension.gd" type="Script" id=2]
[ext_resource path="res://Mesh/OffTheRampFrontHub.obj" type="ArrayMesh" id=3]
[ext_resource path="res://Materials/Rubber.tres" type="Material" id=4]
[ext_resource path="res://Mesh/OffTheRampWheel.obj" type="ArrayMesh" id=5]
[ext_resource path="res://Materials/Aluminum.tres" type="Material" id=6]
[ext_resource path="res://Mesh/OffTheRampFrame.obj" type="ArrayMesh" id=7]
[ext_resource path="res://Materials/BlueMetal.tres" type="Material" id=8]
[ext_resource path="res://Materials/Brass.tres" type="Material" id=9]
[ext_resource path="res://Materials/Steel.tres" type="Material" id=10]
[ext_resource path="res://Mesh/OffTheRampUpperBoneFront.obj" type="ArrayMesh" id=11]
[ext_resource path="res://Mesh/OffTheRampLowerBoneFront.obj" type="ArrayMesh" id=12]
[ext_resource path="res://Mesh/OffTheRampEngine.obj" type="ArrayMesh" id=13]
[ext_resource path="res://Materials/RedMetal.tres" type="Material" id=14]
[ext_resource path="res://Materials/Black.tres" type="Material" id=15]
[ext_resource path="res://Audio/1-EngineIdle.wav" type="AudioStream" id=16]
[ext_resource path="res://Audio/1-EngineMax.wav" type="AudioStream" id=17]
[ext_resource path="res://Mesh/OffTheRampAxle.obj" type="ArrayMesh" id=18]
[ext_resource path="res://Mesh/OffTheRampSteeringWheel.obj" type="ArrayMesh" id=19]

[sub_resource type="Curve" id=1]
_data = [ Vector2( 0, 0.2008 ), 0.0, 1.87333, 0, 0, Vector2( 0.480812, 1 ), 0.0, 0.0, 0, 0, Vector2( 1, 0.1744 ), -5.3851, 0.0, 0, 0 ]

[sub_resource type="CylinderShape" id=2]
radius = 1.06608
height = 1.47851

[sub_resource type="ConvexPolygonShape" id=3]
points = PoolVector3Array( -5.33073, 3.11083, -1.63227, -5.33073, 3.11083, -1.45664, -5.33073, 2.49843, -1.63227, -5.33073, 2.49843, -1.45664, 5, 1.55488, -0.912183, 5, 2.16728, -0.912183, 5, 1.55488, -1.08782, 5, 2.16728, -1.08782, 2, 2.26728, -0.912564, 2, 2.26728, -1.08744, 4.9, 2.26728, -0.912549, 4.9, 2.26728, -1.08745, -0.681262, 1.55713, -1.62611, 2, 1.5569, -1.18782, -0.681262, 2.16502, -1.62611, 2, 2.16526, -1.18782, 2, 2.16526, -0.812183, 2, 1.5569, -0.812183, -0.681262, 2.16502, -1.25047, -0.681262, 1.55713, -1.25047, -3.98019, 2.50099, -1.35664, -5.23073, 2.50089, -1.35664, -3.98019, 3.10828, -1.35664, -5.23073, 3.10838, -1.35664, 2, 1.45488, -1.08744, 2, 1.45488, -0.912564, 4.9, 1.45488, -1.08745, 4.9, 1.45488, -0.912549, -1.31254, 1.53604, -1.60086, -1.31254, 1.53604, -1.42586, -0.681262, 1.45488, -1.52574, -0.681262, 1.45488, -1.35085, 2, 1.5569, -0.812183, 2, 2.16526, -0.812183, 4.9, 1.55682, -0.812183, 4.9, 2.16534, -0.812183, -5.23073, 3.10838, -1.73227, -5.23073, 2.50089, -1.73227, -3.98019, 3.10828, -1.73227, -3.98019, 2.50099, -1.73227, -1.91811, 2.44133, -1.35664, -1.31254, 2.24579, -1.32554, -1.91811, 1.83505, -1.35664, -1.31254, 1.63869, -1.32554, -1.31254, 2.24579, -1.70118, -1.91811, 2.44133, -1.73227, -1.31254, 1.63869, -1.70118, -1.91811, 1.83505, -1.73227, -0.681262, 1.45488, -1.35085, -2.74335, 2.8306, -1.35664, -2.74335, 2.22444, -1.35664, -1.91811, 1.73199, -1.63202, -1.91811, 1.73199, -1.45689, -3.98019, 3.10828, -1.35664, -3.34891, 3.02684, -1.35664, -3.98019, 2.50099, -1.35664, -3.34891, 2.4201, -1.35664, -3.98019, 2.39843, -1.63212, -3.98019, 2.39843, -1.45679, -3.34891, 2.31727, -1.6321, -3.34891, 2.31727, -1.45681, -3.98019, 2.39843, -1.45679, -3.98019, 2.39843, -1.63212, -5.23073, 2.39843, -1.45679, -5.23073, 2.39843, -1.63213, -1.91811, 2.54439, -1.63202, -1.91811, 2.54439, -1.45689, -2.74335, 2.93372, -1.63207, -2.74335, 2.93372, -1.45684, -2.74335, 2.12132, -1.45684, -2.74335, 2.12132, -1.45684, -1.91811, 1.73199, -1.63202, -2.74335, 2.12132, -1.63207, -3.34891, 3.02684, -1.73227, -3.98019, 3.10828, -1.73227, -3.34891, 2.4201, -1.73227, -3.98019, 2.50099, -1.73227, -2.74335, 2.8306, -1.73227, -2.74335, 2.22444, -1.73227, -2.74335, 2.8306, -1.35664, -2.74335, 2.22444, -1.35664, 2, 2.16526, -1.18782, 2, 1.5569, -1.18782, 4.9, 2.16534, -1.18782, 4.9, 1.55682, -1.18782, -1.31254, 2.34844, -1.42586, -1.31254, 2.34844, -1.60086, -0.681262, 2.26728, -1.35085, -0.681262, 2.26728, -1.52574, -1.31254, 2.24579, -1.70118, -1.31254, 1.63869, -1.70118, -3.34891, 3.12967, -1.45681, -3.34891, 3.12967, -1.6321, -3.98019, 3.21083, -1.45679, -3.98019, 3.21083, -1.63212, -3.98019, 3.21083, -1.63212, -3.98019, 3.21083, -1.45679, -5.23073, 3.21083, -1.63213, -5.23073, 3.21083, -1.45679, 4.9, 2.26728, -1.08745, 2, 2.26728, -1.08744, 4.9, 2.16534, -1.18782, 2, 2.16526, -1.18782, 2, 1.45488, -1.08744, 4.9, 1.45488, -1.08745, 4.9, 1.55682, -1.18782, 4.9, 1.45488, -0.912549, 2, 1.45488, -0.912564, 4.9, 1.55682, -0.812183, 2, 1.5569, -0.812183, 2, 2.26728, -0.912564, 4.9, 2.26728, -0.912549, 4.9, 2.16534, -0.812183, -0.681262, 2.26728, -1.52574, -1.31254, 2.34844, -1.60086, -1.31254, 2.24579, -1.32554, -0.681262, 2.26728, -1.35085, -1.91811, 2.54439, -1.45689, -1.31254, 2.34844, -1.42586, -0.681262, 1.45488, -1.35085, -1.31254, 1.53604, -1.42586, -0.681262, 1.55713, -1.25047, -1.91811, 1.73199, -1.63202, -1.31254, 1.53604, -1.60086, -2.74335, 2.8306, -1.73227, -1.91811, 2.44133, -1.73227, -2.74335, 2.93372, -1.63207, -0.681262, 2.16502, -1.25047, 2, 2.16526, -1.18782, -2.74335, 2.22444, -1.73227, -1.91811, 1.73199, -1.63202, -1.91811, 1.83505, -1.73227, -0.681262, 1.45488, -1.52574, 2, 1.45488, -1.08744, -0.681262, 1.55713, -1.62611, -1.91811, 1.73199, -1.45689, -2.74335, 2.12132, -1.45684, -1.91811, 1.83505, -1.35664, -2.74335, 2.12132, -1.45684, 2, 1.5569, -0.812183, -0.681262, 1.45488, -1.35085, -5.23073, 3.10838, -1.35664, -5.23073, 3.21083, -1.45679, -5.23073, 3.10838, -1.73227, -5.23073, 3.21083, -1.63213, -5.23073, 2.39843, -1.63213, -5.23073, 2.50089, -1.73227, -5.23073, 2.39843, -1.45679, -5.23073, 2.50089, -1.35664, -5.33073, 2.49843, 1.45664, -5.33073, 3.11083, 1.45664, -5.33073, 2.49843, 1.63227, -5.33073, 3.11083, 1.63227, 5, 2.16728, 1.08782, 5, 2.16728, 0.912183, 5, 1.55488, 1.08782, 5, 1.55488, 0.912183, 4.9, 2.26728, 1.08745, 2, 2.26728, 1.08744, 4.9, 2.26728, 0.912549, 2, 2.26728, 0.912564, 2, 2.16526, 1.18782, 2, 1.5569, 1.18782, -0.681262, 2.16502, 1.62611, -0.681262, 1.55713, 1.62611, -0.681262, 1.55713, 1.25047, 2, 1.5569, 0.812183, -0.681262, 2.16502, 1.25047, 2, 2.16526, 0.812183, -5.23073, 3.10838, 1.35664, -5.23073, 2.50089, 1.35664, -3.98019, 3.10828, 1.35664, -3.98019, 2.50099, 1.35664, 4.9, 1.45488, 0.912549, 2, 1.45488, 0.912564, 4.9, 1.45488, 1.08745, 2, 1.45488, 1.08744, -0.681262, 1.45488, 1.35085, -1.31254, 1.53604, 1.42586, -0.681262, 1.45488, 1.52574, -1.31254, 1.53604, 1.60086, 4.9, 2.16534, 0.812183, 2, 2.16526, 0.812183, 4.9, 1.55682, 0.812183, 2, 1.5569, 0.812183, -3.98019, 2.50099, 1.73227, -5.23073, 2.50089, 1.73227, -3.98019, 3.10828, 1.73227, -5.23073, 3.10838, 1.73227, -1.31254, 1.63869, 1.32554, -1.31254, 2.24579, 1.32554, -1.91811, 1.83505, 1.35664, -1.91811, 2.44133, 1.35664, -1.91811, 1.83505, 1.73227, -1.91811, 2.44133, 1.73227, -1.31254, 1.63869, 1.70118, -1.31254, 2.24579, 1.70118, -0.681262, 1.45488, 1.35085, -2.74335, 2.22444, 1.35664, -2.74335, 2.8306, 1.35664, -1.91811, 1.73199, 1.45689, -1.91811, 1.73199, 1.63202, -3.34891, 2.4201, 1.35664, -3.34891, 3.02684, 1.35664, -3.98019, 2.50099, 1.35664, -3.98019, 3.10828, 1.35664, -3.34891, 2.31727, 1.45681, -3.98019, 2.39843, 1.45679, -3.34891, 2.31727, 1.6321, -3.98019, 2.39843, 1.63212, -5.23073, 2.39843, 1.63213, -3.98019, 2.39843, 1.63212, -5.23073, 2.39843, 1.45679, -3.98019, 2.39843, 1.45679, -2.74335, 2.93372, 1.45684, -1.91811, 2.54439, 1.45689, -2.74335, 2.93372, 1.63207, -1.91811, 2.54439, 1.63202, -2.74335, 2.12132, 1.63207, -1.91811, 1.73199, 1.63202, -2.74335, 2.12132, 1.45684, -2.74335, 2.12132, 1.45684, -3.98019, 2.50099, 1.73227, -3.98019, 3.10828, 1.73227, -3.34891, 2.4201, 1.73227, -3.34891, 3.02684, 1.73227, -2.74335, 2.22444, 1.73227, -2.74335, 2.8306, 1.73227, -2.74335, 2.22444, 1.35664, -2.74335, 2.8306, 1.35664, 4.9, 1.55682, 1.18782, 2, 1.5569, 1.18782, 4.9, 2.16534, 1.18782, 2, 2.16526, 1.18782, -0.681262, 2.26728, 1.52574, -1.31254, 2.34844, 1.60086, -0.681262, 2.26728, 1.35085, -1.31254, 2.34844, 1.42586, -1.31254, 1.63869, 1.70118, -1.31254, 2.24579, 1.70118, -3.34891, 3.12967, 1.6321, -3.34891, 3.12967, 1.45681, -3.98019, 3.21083, 1.63212, -3.98019, 3.21083, 1.45679, -5.23073, 3.21083, 1.45679, -3.98019, 3.21083, 1.45679, -5.23073, 3.21083, 1.63213, -3.98019, 3.21083, 1.63212, 2, 2.16526, 1.18782, 2, 2.26728, 1.08744, 4.9, 2.16534, 1.18782, 4.9, 2.26728, 1.08745, 4.9, 1.55682, 1.18782, 4.9, 1.45488, 1.08745, 2, 1.45488, 1.08744, 2, 1.5569, 0.812183, 2, 1.45488, 0.912564, 4.9, 1.55682, 0.812183, 4.9, 1.45488, 0.912549, 4.9, 2.16534, 0.812183, 4.9, 2.26728, 0.912549, 2, 2.26728, 0.912564, -1.31254, 2.34844, 1.60086, -0.681262, 2.26728, 1.52574, -0.681262, 2.26728, 1.35085, -1.31254, 2.24579, 1.32554, -1.31254, 2.34844, 1.42586, -1.91811, 2.54439, 1.45689, -0.681262, 1.55713, 1.25047, -1.31254, 1.53604, 1.42586, -0.681262, 1.45488, 1.35085, -1.31254, 1.53604, 1.60086, -1.91811, 1.73199, 1.63202, -2.74335, 2.93372, 1.63207, -1.91811, 2.44133, 1.73227, -2.74335, 2.8306, 1.73227, -0.681262, 2.16502, 1.25047, 2, 2.16526, 1.18782, -1.91811, 1.83505, 1.73227, -1.91811, 1.73199, 1.63202, -2.74335, 2.22444, 1.73227, -0.681262, 1.55713, 1.62611, 2, 1.45488, 1.08744, -0.681262, 1.45488, 1.52574, -2.74335, 2.12132, 1.45684, -1.91811, 1.83505, 1.35664, -2.74335, 2.12132, 1.45684, -1.91811, 1.73199, 1.45689, -0.681262, 1.45488, 1.35085, 2, 1.5569, 0.812183, -5.23073, 3.21083, 1.45679, -5.23073, 3.10838, 1.35664, -5.23073, 3.21083, 1.63213, -5.23073, 3.10838, 1.73227, -5.23073, 2.50089, 1.73227, -5.23073, 2.39843, 1.63213, -5.23073, 2.50089, 1.35664, -5.23073, 2.39843, 1.45679, 0.223785, 2.16502, -0.400474, -0.788447, 2.16502, -1.27716, 0.035738, 2.16502, -0.400474, -1.173, 2.16502, -1.37291, 1.08039, 2.16502, -0.300474, 0.407888, 2.16502, -0.300474, 1.08039, 2.16502, -0.05, 0.407888, 2.16502, -0.05, 2.11239, 2.16526, -0.815245, 1.28232, 2.16504, -0.374531, 2.40866, 2.16526, -0.823317, 1.46449, 2.16504, -0.342504, 1.35273, 2.16502, -0.26062, 1.18039, 2.16502, -0.290918, 1.18039, 2.16502, 0, -0.788447, 1.55713, -1.27716, 0.223785, 1.55713, -0.400474, -1.173, 1.55713, -1.37291, 0.035738, 1.55713, -0.400474, 1.28232, 1.55711, -0.374531, 2.11239, 1.5569, -0.815245, 1.46449, 1.55712, -0.342504, 2.40866, 1.5569, -0.823317, 0.407888, 1.55713, -0.300474, 1.08039, 1.55713, -0.300474, 0.407888, 1.55713, -0.05, 1.08039, 1.55713, -0.05, 1.17455, 1.60712, 0.373921, 2, 1.60689, 0.812183, 1.17455, 2.11503, 0.373921, 2, 2.11526, 0.812183, 0.407888, 1.60713, -0.350474, 0.407888, 2.11502, -0.350474, 1.08039, 1.60713, -0.350474, 1.08039, 2.11502, -0.350474, -0.681262, 1.60713, -1.25047, -0.681262, 2.11502, -1.25047, 0.320093, 1.60713, -0.383209, 0.320093, 2.11502, -0.383209, 1.18039, 1.55713, 0, 1.18039, 1.55713, -0.290918, 1.35273, 1.55713, -0.26062, 0.307888, 2.16502, 0, 0.307888, 2.16502, -0.300474, 0.134981, 2.16502, -0.300474, 0.134981, 1.55713, -0.300474, 0.307888, 1.55713, -0.300474, 0.307888, 1.55713, 0, -1.173, 2.16502, 1.37291, -0.788447, 2.16502, 1.27716, 0.035738, 2.16502, 0.400474, 0.223785, 2.16502, 0.400474, 0.407888, 2.16502, 0.05, 0.407888, 2.16502, 0.300474, 1.08039, 2.16502, 0.05, 1.08039, 2.16502, 0.300474, 1.46449, 2.16504, 0.342504, 1.28232, 2.16504, 0.374531, 2.40866, 2.16526, 0.823317, 2.11239, 2.16526, 0.815245, 1.18039, 2.16502, 0.290918, 1.35273, 2.16502, 0.26062, 0.035738, 1.55713, 0.400474, 0.223785, 1.55713, 0.400474, -1.173, 1.55713, 1.37291, -0.788447, 1.55713, 1.27716, 2.40866, 1.5569, 0.823317, 2.11239, 1.5569, 0.815245, 1.46449, 1.55712, 0.342504, 1.28232, 1.55711, 0.374531, 1.08039, 1.55713, 0.05, 1.08039, 1.55713, 0.300474, 0.407888, 1.55713, 0.05, 0.407888, 1.55713, 0.300474, 1.08039, 2.11502, 0.350474, 0.407888, 2.11502, 0.350474, 1.08039, 1.60713, 0.350474, 0.407888, 1.60713, 0.350474, 0.320093, 2.11502, 0.383209, -0.681262, 2.11502, 1.25047, 0.320093, 1.60713, 0.383209, -0.681262, 1.60713, 1.25047, 1.35273, 1.55713, 0.26062, 1.18039, 1.55713, 0.290918, 0.134981, 2.16502, 0.300474, 0.307888, 2.16502, 0.300474, 0.307888, 1.55713, 0.300474, 0.134981, 1.55713, 0.300474, 1.17455, 2.11503, -0.373921, 1.17455, 1.60712, -0.373921, 2, 2.11526, -0.812183, 2, 1.60689, -0.812183, -2.15619, 2.27975, -2.095, -2.70102, 2.27975, -2.095, -2.39292, 2.90981, -2.095, -2.83363, 3.41407, -2.095, -3.41049, 3.67635, -2.095, -3.41049, 3.10028, -2.095, -2.156, 1.68024, -2.095, -2.70102, 1.68024, -2.095, -5.59903, 3.67661, -2.095, -4.97988, 3.10028, -2.095, -2.27013, 2.99933, -2.24637, -2.27013, 2.99933, -3.61934, -2, 2.27975, -2.24637, -2, 2.27975, -3.61934, -2.08664, 2.27886, -3.705, -2.34059, 2.95561, -3.705, -2.17036, 2.278, -3.705, -2.40884, 2.91327, -3.705, -2.77276, 3.45073, -3.705, -2.81472, 3.37768, -3.705, -2.72987, 3.52538, -2.24637, -3.41049, 3.83447, -2.24637, -2, 1.68024, -2.24637, -5.59903, 3.83447, -2.24637, -3.41305, 3.7421, -3.705, -5.47317, 3.74236, -3.705, -3.41559, 3.65055, -3.705, -5.3477, 3.65055, -3.705, -2.72987, 3.52538, -3.61934, -2, 1.68024, -3.61934, -3.41049, 3.83447, -3.61934, -5.59903, 3.83447, -3.61934, -2.0866, 1.71506, -3.705, -2.17036, 1.74873, -3.705, -3.41049, 3.10028, 2.095, -2.70102, 2.27975, 2.095, -3.41049, 3.67635, 2.095, -2.83363, 3.41407, 2.095, -2.39292, 2.90981, 2.095, -2.15619, 2.27975, 2.095, -2.70102, 1.68024, 2.095, -2.156, 1.68024, 2.095, -4.97988, 3.10028, 2.095, -5.59903, 3.67661, 2.095, -2, 2.27975, 3.61934, -2.27013, 2.99933, 3.61934, -2, 2.27975, 2.24637, -2.27013, 2.99933, 2.24637, -2.40884, 2.91327, 3.705, -2.34059, 2.95561, 3.705, -2.17036, 2.278, 3.705, -2.08664, 2.27886, 3.705, -2.81472, 3.37768, 3.705, -2.77276, 3.45073, 3.705, -3.41049, 3.83447, 2.24637, -2.72987, 3.52538, 2.24637, -2, 1.68024, 2.24637, -5.59903, 3.83447, 2.24637, -5.3477, 3.65055, 3.705, -5.47317, 3.74236, 3.705, -3.41559, 3.65055, 3.705, -3.41305, 3.7421, 3.705, -2.72987, 3.52538, 3.61934, -2, 1.68024, 3.61934, -3.41049, 3.83447, 3.61934, -5.59903, 3.83447, 3.61934, -2.0866, 1.71506, 3.705, -2.17036, 1.74873, 3.705, 4.57279, 1.36714, -1.16881, 4.57279, 1.32153, -1.15931, 4.54779, 1.36714, -1.16881, 4.54779, 1.32153, -1.15931, 4.57279, 1.58509, -1.06497, 4.54779, 1.58509, -1.06497, 4.57279, 1.28678, -1.12828, 4.54779, 1.28678, -1.12828, 4.57279, 1.2722, -1.08403, 4.54779, 1.2722, -1.08403, 4.57279, 1.28171, -1.03842, 4.54779, 1.28171, -1.03842, 4.57279, 1.31274, -1.00367, 4.57279, 1.53069, -0.899836, 4.54779, 1.31274, -1.00367, 4.54779, 1.53069, -0.899836, 4.54779, 1.2722, -1.08403, 4.54779, 1.28171, -1.03842, 4.54779, 1.28678, -1.12828, 4.54779, 1.32153, -1.15931, 4.54779, 1.36714, -1.16881, 4.54779, 1.58509, -1.06497, 4.54779, 1.53069, -0.899836, 4.54779, 1.31274, -1.00367, 4.57279, 1.28171, -1.03842, 4.57279, 1.2722, -1.08403, 4.57279, 1.31274, -1.00367, 4.57279, 1.53069, -0.899836, 4.57279, 1.58509, -1.06497, 4.57279, 1.36714, -1.16881, 4.57279, 1.32153, -1.15931, 4.57279, 1.28678, -1.12828, 4.33721, 1.36714, -1.16881, 4.33721, 1.32153, -1.15931, 4.31221, 1.36714, -1.16881, 4.31221, 1.32153, -1.15931, 4.33721, 1.58509, -1.06497, 4.31221, 1.58509, -1.06497, 4.33721, 1.28678, -1.12828, 4.31221, 1.28678, -1.12828, 4.33721, 1.2722, -1.08403, 4.31221, 1.2722, -1.08403, 4.33721, 1.28171, -1.03842, 4.31221, 1.28171, -1.03842, 4.33721, 1.31274, -1.00367, 4.33721, 1.53069, -0.899836, 4.31221, 1.31274, -1.00367, 4.31221, 1.53069, -0.899836, 4.31221, 1.2722, -1.08403, 4.31221, 1.28171, -1.03842, 4.31221, 1.28678, -1.12828, 4.31221, 1.32153, -1.15931, 4.31221, 1.36714, -1.16881, 4.31221, 1.58509, -1.06497, 4.31221, 1.53069, -0.899836, 4.31221, 1.31274, -1.00367, 4.33721, 1.28171, -1.03842, 4.33721, 1.2722, -1.08403, 4.33721, 1.31274, -1.00367, 4.33721, 1.53069, -0.899836, 4.33721, 1.58509, -1.06497, 4.33721, 1.36714, -1.16881, 4.33721, 1.32153, -1.15931, 4.33721, 1.28678, -1.12828, 3.67853, 1.36714, -1.16881, 3.67853, 1.32153, -1.15931, 3.65353, 1.36714, -1.16881, 3.65353, 1.32153, -1.15931, 3.67853, 1.58509, -1.06497, 3.65353, 1.58509, -1.06497, 3.67853, 1.28678, -1.12828, 3.65353, 1.28678, -1.12828, 3.67853, 1.2722, -1.08403, 3.65353, 1.2722, -1.08403, 3.67853, 1.28171, -1.03842, 3.65353, 1.28171, -1.03842, 3.67853, 1.31274, -1.00367, 3.67853, 1.53069, -0.899836, 3.65353, 1.31274, -1.00367, 3.65353, 1.53069, -0.899836, 3.65353, 1.2722, -1.08403, 3.65353, 1.28171, -1.03842, 3.65353, 1.28678, -1.12828, 3.65353, 1.32153, -1.15931, 3.65353, 1.36714, -1.16881, 3.65353, 1.58509, -1.06497, 3.65353, 1.53069, -0.899836, 3.65353, 1.31274, -1.00367, 3.67853, 1.28171, -1.03842, 3.67853, 1.2722, -1.08403, 3.67853, 1.31274, -1.00367, 3.67853, 1.53069, -0.899836, 3.67853, 1.58509, -1.06497, 3.67853, 1.36714, -1.16881, 3.67853, 1.32153, -1.15931, 3.67853, 1.28678, -1.12828, 3.44295, 1.36714, -1.16881, 3.44295, 1.32153, -1.15931, 3.41795, 1.36714, -1.16881, 3.41795, 1.32153, -1.15931, 3.44295, 1.58509, -1.06497, 3.41795, 1.58509, -1.06497, 3.44295, 1.28678, -1.12828, 3.41795, 1.28678, -1.12828, 3.44295, 1.2722, -1.08403, 3.41795, 1.2722, -1.08403, 3.44295, 1.28171, -1.03842, 3.41795, 1.28171, -1.03842, 3.44295, 1.31274, -1.00367, 3.44295, 1.53069, -0.899836, 3.41795, 1.31274, -1.00367, 3.41795, 1.53069, -0.899836, 3.41795, 1.2722, -1.08403, 3.41795, 1.28171, -1.03842, 3.41795, 1.28678, -1.12828, 3.41795, 1.32153, -1.15931, 3.41795, 1.36714, -1.16881, 3.41795, 1.58509, -1.06497, 3.41795, 1.53069, -0.899836, 3.41795, 1.31274, -1.00367, 3.44295, 1.28171, -1.03842, 3.44295, 1.2722, -1.08403, 3.44295, 1.31274, -1.00367, 3.44295, 1.53069, -0.899836, 3.44295, 1.58509, -1.06497, 3.44295, 1.36714, -1.16881, 3.44295, 1.32153, -1.15931, 3.44295, 1.28678, -1.12828, 4.54779, 1.32153, 1.15931, 4.57279, 1.32153, 1.15931, 4.54779, 1.36714, 1.16881, 4.57279, 1.36714, 1.16881, 4.54779, 1.58509, 1.06497, 4.57279, 1.58509, 1.06497, 4.54779, 1.28678, 1.12828, 4.57279, 1.28678, 1.12828, 4.54779, 1.2722, 1.08403, 4.57279, 1.2722, 1.08403, 4.54779, 1.28171, 1.03842, 4.57279, 1.28171, 1.03842, 4.54779, 1.53069, 0.899836, 4.57279, 1.53069, 0.899836, 4.54779, 1.31274, 1.00367, 4.57279, 1.31274, 1.00367, 4.54779, 1.31274, 1.00367, 4.54779, 1.28171, 1.03842, 4.54779, 1.53069, 0.899836, 4.54779, 1.58509, 1.06497, 4.54779, 1.36714, 1.16881, 4.54779, 1.32153, 1.15931, 4.54779, 1.28678, 1.12828, 4.54779, 1.2722, 1.08403, 4.57279, 1.28678, 1.12828, 4.57279, 1.2722, 1.08403, 4.57279, 1.32153, 1.15931, 4.57279, 1.36714, 1.16881, 4.57279, 1.58509, 1.06497, 4.57279, 1.53069, 0.899836, 4.57279, 1.31274, 1.00367, 4.57279, 1.28171, 1.03842, 4.31221, 1.32153, 1.15931, 4.33721, 1.32153, 1.15931, 4.31221, 1.36714, 1.16881, 4.33721, 1.36714, 1.16881, 4.31221, 1.58509, 1.06497, 4.33721, 1.58509, 1.06497, 4.31221, 1.28678, 1.12828, 4.33721, 1.28678, 1.12828, 4.31221, 1.2722, 1.08403, 4.33721, 1.2722, 1.08403, 4.31221, 1.28171, 1.03842, 4.33721, 1.28171, 1.03842, 4.31221, 1.53069, 0.899836, 4.33721, 1.53069, 0.899836, 4.31221, 1.31274, 1.00367, 4.33721, 1.31274, 1.00367, 4.31221, 1.31274, 1.00367, 4.31221, 1.28171, 1.03842, 4.31221, 1.53069, 0.899836, 4.31221, 1.58509, 1.06497, 4.31221, 1.36714, 1.16881, 4.31221, 1.32153, 1.15931, 4.31221, 1.28678, 1.12828, 4.31221, 1.2722, 1.08403, 4.33721, 1.28678, 1.12828, 4.33721, 1.2722, 1.08403, 4.33721, 1.32153, 1.15931, 4.33721, 1.36714, 1.16881, 4.33721, 1.58509, 1.06497, 4.33721, 1.53069, 0.899836, 4.33721, 1.31274, 1.00367, 4.33721, 1.28171, 1.03842, 3.65353, 1.32153, 1.15931, 3.67853, 1.32153, 1.15931, 3.65353, 1.36714, 1.16881, 3.67853, 1.36714, 1.16881, 3.65353, 1.58509, 1.06497, 3.67853, 1.58509, 1.06497, 3.65353, 1.28678, 1.12828, 3.67853, 1.28678, 1.12828, 3.65353, 1.2722, 1.08403, 3.67853, 1.2722, 1.08403, 3.65353, 1.28171, 1.03842, 3.67853, 1.28171, 1.03842, 3.65353, 1.53069, 0.899836, 3.67853, 1.53069, 0.899836, 3.65353, 1.31274, 1.00367, 3.67853, 1.31274, 1.00367, 3.65353, 1.31274, 1.00367, 3.65353, 1.28171, 1.03842, 3.65353, 1.53069, 0.899836, 3.65353, 1.58509, 1.06497, 3.65353, 1.36714, 1.16881, 3.65353, 1.32153, 1.15931, 3.65353, 1.28678, 1.12828, 3.65353, 1.2722, 1.08403, 3.67853, 1.28678, 1.12828, 3.67853, 1.2722, 1.08403, 3.67853, 1.32153, 1.15931, 3.67853, 1.36714, 1.16881, 3.67853, 1.58509, 1.06497, 3.67853, 1.53069, 0.899836, 3.67853, 1.31274, 1.00367, 3.67853, 1.28171, 1.03842, 3.41795, 1.32153, 1.15931, 3.44295, 1.32153, 1.15931, 3.41795, 1.36714, 1.16881, 3.44295, 1.36714, 1.16881, 3.41795, 1.58509, 1.06497, 3.44295, 1.58509, 1.06497, 3.41795, 1.28678, 1.12828, 3.44295, 1.28678, 1.12828, 3.41795, 1.2722, 1.08403, 3.44295, 1.2722, 1.08403, 3.41795, 1.28171, 1.03842, 3.44295, 1.28171, 1.03842, 3.41795, 1.53069, 0.899836, 3.44295, 1.53069, 0.899836, 3.41795, 1.31274, 1.00367, 3.44295, 1.31274, 1.00367, 3.41795, 1.31274, 1.00367, 3.41795, 1.28171, 1.03842, 3.41795, 1.53069, 0.899836, 3.41795, 1.58509, 1.06497, 3.41795, 1.36714, 1.16881, 3.41795, 1.32153, 1.15931, 3.41795, 1.28678, 1.12828, 3.41795, 1.2722, 1.08403, 3.44295, 1.28678, 1.12828, 3.44295, 1.2722, 1.08403, 3.44295, 1.32153, 1.15931, 3.44295, 1.36714, 1.16881, 3.44295, 1.58509, 1.06497, 3.44295, 1.53069, 0.899836, 3.44295, 1.31274, 1.00367, 3.44295, 1.28171, 1.03842, 4.56997, 2.32501, -1.24159, 4.56997, 2.31196, -1.28631, 4.54497, 2.32501, -1.24159, 4.54497, 2.31196, -1.28631, 4.56997, 2.2386, -1.01616, 4.54497, 2.2386, -1.01616, 4.56997, 2.2783, -1.31852, 4.54497, 2.2783, -1.31852, 4.56997, 2.23304, -1.32957, 4.54497, 2.23304, -1.32957, 4.56997, 2.18832, -1.31652, 4.54497, 2.18832, -1.31652, 4.56997, 2.15612, -1.28286, 4.56997, 2.06971, -1.05743, 4.54497, 2.15612, -1.28286, 4.54497, 2.06971, -1.05743, 4.54497, 2.23304, -1.32957, 4.54497, 2.18832, -1.31652, 4.54497, 2.2783, -1.31852, 4.54497, 2.31196, -1.28631, 4.54497, 2.32501, -1.24159, 4.54497, 2.2386, -1.01616, 4.54497, 2.06971, -1.05743, 4.54497, 2.15612, -1.28286, 4.56997, 2.18832, -1.31652, 4.56997, 2.23304, -1.32957, 4.56997, 2.15612, -1.28286, 4.56997, 2.06971, -1.05743, 4.56997, 2.2386, -1.01616, 4.56997, 2.32501, -1.24159, 4.56997, 2.31196, -1.28631, 4.56997, 2.2783, -1.31852, 4.33438, 2.32501, -1.24159, 4.33438, 2.31196, -1.28631, 4.30938, 2.32501, -1.24159, 4.30938, 2.31196, -1.28631, 4.33438, 2.2386, -1.01616, 4.30938, 2.2386, -1.01616, 4.33438, 2.2783, -1.31852, 4.30938, 2.2783, -1.31852, 4.33438, 2.23304, -1.32957, 4.30938, 2.23304, -1.32957, 4.33438, 2.18832, -1.31652, 4.30938, 2.18832, -1.31652, 4.33438, 2.15612, -1.28286, 4.33438, 2.06971, -1.05743, 4.30938, 2.15612, -1.28286, 4.30938, 2.06971, -1.05743, 4.30938, 2.23304, -1.32957, 4.30938, 2.18832, -1.31652, 4.30938, 2.2783, -1.31852, 4.30938, 2.31196, -1.28631, 4.30938, 2.32501, -1.24159, 4.30938, 2.2386, -1.01616, 4.30938, 2.06971, -1.05743, 4.30938, 2.15612, -1.28286, 4.33438, 2.18832, -1.31652, 4.33438, 2.23304, -1.32957, 4.33438, 2.15612, -1.28286, 4.33438, 2.06971, -1.05743, 4.33438, 2.2386, -1.01616, 4.33438, 2.32501, -1.24159, 4.33438, 2.31196, -1.28631, 4.33438, 2.2783, -1.31852, 3.67712, 2.32501, -1.24159, 3.67712, 2.31196, -1.28631, 3.65212, 2.32501, -1.24159, 3.65212, 2.31196, -1.28631, 3.67712, 2.2386, -1.01616, 3.65212, 2.2386, -1.01616, 3.67712, 2.2783, -1.31852, 3.65212, 2.2783, -1.31852, 3.67712, 2.23304, -1.32957, 3.65212, 2.23304, -1.32957, 3.67712, 2.18832, -1.31652, 3.65212, 2.18832, -1.31652, 3.67712, 2.15612, -1.28286, 3.67712, 2.06971, -1.05743, 3.65212, 2.15612, -1.28286, 3.65212, 2.06971, -1.05743, 3.65212, 2.23304, -1.32957, 3.65212, 2.18832, -1.31652, 3.65212, 2.2783, -1.31852, 3.65212, 2.31196, -1.28631, 3.65212, 2.32501, -1.24159, 3.65212, 2.2386, -1.01616, 3.65212, 2.06971, -1.05743, 3.65212, 2.15612, -1.28286, 3.67712, 2.18832, -1.31652, 3.67712, 2.23304, -1.32957, 3.67712, 2.15612, -1.28286, 3.67712, 2.06971, -1.05743, 3.67712, 2.2386, -1.01616, 3.67712, 2.32501, -1.24159, 3.67712, 2.31196, -1.28631, 3.67712, 2.2783, -1.31852, 3.44153, 2.32501, -1.24159, 3.44153, 2.31196, -1.28631, 3.41653, 2.32501, -1.24159, 3.41653, 2.31196, -1.28631, 3.44153, 2.2386, -1.01616, 3.41653, 2.2386, -1.01616, 3.44153, 2.2783, -1.31852, 3.41653, 2.2783, -1.31852, 3.44153, 2.23304, -1.32957, 3.41653, 2.23304, -1.32957, 3.44153, 2.18832, -1.31652, 3.41653, 2.18832, -1.31652, 3.44153, 2.15612, -1.28286, 3.44153, 2.06971, -1.05743, 3.41653, 2.15612, -1.28286, 3.41653, 2.06971, -1.05743, 3.41653, 2.23304, -1.32957, 3.41653, 2.18832, -1.31652, 3.41653, 2.2783, -1.31852, 3.41653, 2.31196, -1.28631, 3.41653, 2.32501, -1.24159, 3.41653, 2.2386, -1.01616, 3.41653, 2.06971, -1.05743, 3.41653, 2.15612, -1.28286, 3.44153, 2.18832, -1.31652, 3.44153, 2.23304, -1.32957, 3.44153, 2.15612, -1.28286, 3.44153, 2.06971, -1.05743, 3.44153, 2.2386, -1.01616, 3.44153, 2.32501, -1.24159, 3.44153, 2.31196, -1.28631, 3.44153, 2.2783, -1.31852, 4.54497, 2.31196, 1.28631, 4.56997, 2.31196, 1.28631, 4.54497, 2.32501, 1.24159, 4.56997, 2.32501, 1.24159, 4.54497, 2.2386, 1.01616, 4.56997, 2.2386, 1.01616, 4.54497, 2.2783, 1.31852, 4.56997, 2.2783, 1.31852, 4.54497, 2.23304, 1.32957, 4.56997, 2.23304, 1.32957, 4.54497, 2.18832, 1.31652, 4.56997, 2.18832, 1.31652, 4.54497, 2.06971, 1.05743, 4.56997, 2.06971, 1.05743, 4.54497, 2.15612, 1.28286, 4.56997, 2.15612, 1.28286, 4.54497, 2.15612, 1.28286, 4.54497, 2.18832, 1.31652, 4.54497, 2.06971, 1.05743, 4.54497, 2.2386, 1.01616, 4.54497, 2.32501, 1.24159, 4.54497, 2.31196, 1.28631, 4.54497, 2.2783, 1.31852, 4.54497, 2.23304, 1.32957, 4.56997, 2.2783, 1.31852, 4.56997, 2.23304, 1.32957, 4.56997, 2.31196, 1.28631, 4.56997, 2.32501, 1.24159, 4.56997, 2.2386, 1.01616, 4.56997, 2.06971, 1.05743, 4.56997, 2.15612, 1.28286, 4.56997, 2.18832, 1.31652, 4.30938, 2.31196, 1.28631, 4.33438, 2.31196, 1.28631, 4.30938, 2.32501, 1.24159, 4.33438, 2.32501, 1.24159, 4.30938, 2.2386, 1.01616, 4.33438, 2.2386, 1.01616, 4.30938, 2.2783, 1.31852, 4.33438, 2.2783, 1.31852, 4.30938, 2.23304, 1.32957, 4.33438, 2.23304, 1.32957, 4.30938, 2.18832, 1.31652, 4.33438, 2.18832, 1.31652, 4.30938, 2.06971, 1.05743, 4.33438, 2.06971, 1.05743, 4.30938, 2.15612, 1.28286, 4.33438, 2.15612, 1.28286, 4.30938, 2.15612, 1.28286, 4.30938, 2.18832, 1.31652, 4.30938, 2.06971, 1.05743, 4.30938, 2.2386, 1.01616, 4.30938, 2.32501, 1.24159, 4.30938, 2.31196, 1.28631, 4.30938, 2.2783, 1.31852, 4.30938, 2.23304, 1.32957, 4.33438, 2.2783, 1.31852, 4.33438, 2.23304, 1.32957, 4.33438, 2.31196, 1.28631, 4.33438, 2.32501, 1.24159, 4.33438, 2.2386, 1.01616, 4.33438, 2.06971, 1.05743, 4.33438, 2.15612, 1.28286, 4.33438, 2.18832, 1.31652, 3.65212, 2.31196, 1.28631, 3.67712, 2.31196, 1.28631, 3.65212, 2.32501, 1.24159, 3.67712, 2.32501, 1.24159, 3.65212, 2.2386, 1.01616, 3.67712, 2.2386, 1.01616, 3.65212, 2.2783, 1.31852, 3.67712, 2.2783, 1.31852, 3.65212, 2.23304, 1.32957, 3.67712, 2.23304, 1.32957, 3.65212, 2.18832, 1.31652, 3.67712, 2.18832, 1.31652, 3.65212, 2.06971, 1.05743, 3.67712, 2.06971, 1.05743, 3.65212, 2.15612, 1.28286, 3.67712, 2.15612, 1.28286, 3.65212, 2.15612, 1.28286, 3.65212, 2.18832, 1.31652, 3.65212, 2.06971, 1.05743, 3.65212, 2.2386, 1.01616, 3.65212, 2.32501, 1.24159, 3.65212, 2.31196, 1.28631, 3.65212, 2.2783, 1.31852, 3.65212, 2.23304, 1.32957, 3.67712, 2.2783, 1.31852, 3.67712, 2.23304, 1.32957, 3.67712, 2.31196, 1.28631, 3.67712, 2.32501, 1.24159, 3.67712, 2.2386, 1.01616, 3.67712, 2.06971, 1.05743, 3.67712, 2.15612, 1.28286, 3.67712, 2.18832, 1.31652, 3.41653, 2.31196, 1.28631, 3.44153, 2.31196, 1.28631, 3.41653, 2.32501, 1.24159, 3.44153, 2.32501, 1.24159, 3.41653, 2.2386, 1.01616, 3.44153, 2.2386, 1.01616, 3.41653, 2.2783, 1.31852, 3.44153, 2.2783, 1.31852, 3.41653, 2.23304, 1.32957, 3.44153, 2.23304, 1.32957, 3.41653, 2.18832, 1.31652, 3.44153, 2.18832, 1.31652, 3.41653, 2.06971, 1.05743, 3.44153, 2.06971, 1.05743, 3.41653, 2.15612, 1.28286, 3.44153, 2.15612, 1.28286, 3.41653, 2.15612, 1.28286, 3.41653, 2.18832, 1.31652, 3.41653, 2.06971, 1.05743, 3.41653, 2.2386, 1.01616, 3.41653, 2.32501, 1.24159, 3.41653, 2.31196, 1.28631, 3.41653, 2.2783, 1.31852, 3.41653, 2.23304, 1.32957, 3.44153, 2.2783, 1.31852, 3.44153, 2.23304, 1.32957, 3.44153, 2.31196, 1.28631, 3.44153, 2.32501, 1.24159, 3.44153, 2.2386, 1.01616, 3.44153, 2.06971, 1.05743, 3.44153, 2.15612, 1.28286, 3.44153, 2.18832, 1.31652, 1.94158, 1.92897, -1.10102, 1.94163, 1.71353, -1.10102, 1.76866, 1.92897, -1.10102, 1.76861, 1.71353, -1.10102, 1.76866, 1.92897, -1.35645, 1.94192, 1.92897, -1.35645, 1.76881, 2.92897, -1.86628, 1.94192, 2.92897, -1.86628, 1.98284, 1.92897, -1.31535, 1.98284, 1.92897, -1.14195, 1.98284, 2.92897, -1.82522, 1.98284, 2.92897, -1.65171, 1.7274, 1.92897, -1.14243, 1.7274, 1.92897, -1.31504, 1.7274, 2.92897, -1.65225, 1.7274, 2.92897, -1.82487, 1.7274, 1.71353, -1.14237, 1.7274, 1.71353, -1.3151, 0.701642, 4.9899, -1.6522, 0.701642, 4.9899, -1.82492, 0.708084, 5.06041, -1.86628, 0.898348, 5.02571, -1.86628, 1.94143, 2.92897, -1.61084, 1.76881, 2.92897, -1.61084, 1.76861, 1.71353, -1.35645, 1.94193, 1.71353, -1.35645, 1.98284, 1.71353, -1.31539, 1.98284, 1.71353, -1.14196, 0.899257, 5.02571, -1.57084, 0.723819, 5.02571, -1.57084, 0.899257, 5.02571, 0, 0.723819, 5.02571, 0, 0.939257, 5.02571, -1.82533, 0.939257, 5.06244, -1.65162, 0.645335, 5.03662, -1.65084, 0.645335, 5.03662, -1.82628, -1.66531, 5.68055, -1.65084, -1.6268, 5.68055, -1.82628, 0.91763, 4.98571, -1.61084, 0.745263, 4.98571, -1.61084, 0.722332, 5.22669, -1.65084, 0.899257, 5.22669, -1.61084, 0.723819, 5.22669, 0, 0.899257, 5.22669, 0, 0.708084, 5.06041, -1.86628, 0.683819, 5.18578, -1.86628, -1.5868, 5.71079, -1.86628, -1.5868, 5.82926, -1.86628, 0.939257, 5.18669, -1.61084, 0.939257, 5.06244, -1.65162, 0.939257, 5.18669, 0, 0.939257, 5.0664, 0, 0.939257, 5.18669, -1.82536, -1.66531, 5.68055, -1.65084, -1.8128, 5.68055, -1.65084, -1.6668, 5.68055, 0, -1.8128, 5.68055, 0, 0.683819, 5.22669, -1.82628, 0.899257, 5.22669, -1.82628, 0.722332, 5.22669, -1.65084, 0.708084, 5.06041, -1.86628, 0.898365, 5.1858, -1.86628, 0.683819, 5.06571, -1.57084, 0.683819, 5.18669, -1.57084, 0.683819, 5.06571, 0, 0.683819, 5.18669, 0, -1.8928, 5.72122, -1.86628, -1.8928, 5.8487, -1.86628, -3.79355, 5.72124, -1.86628, -3.84071, 5.84881, -1.86628, -1.8128, 5.65904, -1.90001, -1.6668, 5.65904, -1.90001, -1.8128, 5.06434, -2.83256, -1.6668, 5.06434, -2.83256, -1.8128, 5.88153, -1.65084, -1.66531, 5.88153, -1.65084, -1.8128, 5.88153, 0, -1.6668, 5.88153, 0, -1.6268, 5.84153, -1.57084, -1.6268, 5.72055, -1.57084, -1.6268, 5.84153, 0, -1.6268, 5.72055, 0, -1.8528, 5.07496, -3.01397, -1.8528, 5.06477, -2.90628, -1.8528, 2.93333, -3.01427, -1.8528, 2.91289, -2.90628, -1.8128, 5.68055, -1.65084, -1.8528, 5.68055, -1.82628, -3.7385, 5.68055, -1.65084, -3.7385, 5.68055, -1.82628, -1.6268, 5.88153, -1.82628, -1.66531, 5.88153, -1.65084, -1.8528, 5.88153, -1.82628, -1.8128, 5.88153, -1.65084, -3.8128, 5.88153, -1.82628, -3.8128, 5.88153, -1.65084, -1.8528, 5.1951, -2.91343, -1.6268, 5.06477, -2.90628, -1.6268, 5.07496, -3.01397, -1.6268, 2.91289, -2.90628, -1.6268, 2.93333, -3.01427, -1.6668, 5.04344, -3.05295, -1.8128, 5.04344, -3.05295, -1.6668, 2.93333, -3.05295, -1.8128, 2.93333, -3.05295, -1.8528, 2.7519, -2.93122, -1.8528, 1.79765, -1.60479, -1.8528, 1.97222, -1.60479, -1.8128, 2.9099, -2.83386, -1.6668, 2.9099, -2.83386, -1.8128, 2.01609, -1.59721, -1.6668, 2.01609, -1.59721, -1.8128, 5.00284, -2.86628, -1.6668, 5.00284, -2.86628, -1.8128, 2.97333, -2.86628, -1.6668, 2.97333, -2.86628, -1.6668, 5.11413, -3.0273, -1.6668, 5.23543, -2.92592, -1.8128, 5.11413, -3.0273, -1.8128, 5.23543, -2.92592, -1.6668, 2.70545, -2.94784, -1.8128, 2.70545, -2.94784, -1.6668, 1.73419, -1.59727, -1.8128, 1.73419, -1.59727, -1.6268, 2.7519, -2.93122, -1.6268, 1.97222, -1.60479, -1.6268, 1.79765, -1.60479, -3.80658, 5.65206, -1.65084, -3.80658, 5.65206, -1.82628, -4.82473, 4.61888, -1.65084, -4.82473, 4.61888, -1.82628, -1.8128, 1.95266, -1.5648, -1.6668, 1.95266, -1.5648, -1.8128, 1.75084, -1.5648, -1.6668, 1.75084, -1.5648, -4.8928, 4.60579, -1.86628, -4.8528, 4.83718, -1.86628, -1.8528, 5.72055, -1.57084, -1.8528, 5.84153, -1.57084, -1.8528, 5.72055, 0, -1.8528, 5.84153, 0, -1.8528, 5.80923, -1.90628, -1.8528, 5.70248, -1.90628, -1.6268, 5.1951, -2.91343, -5.01345, 4.66134, -1.86628, -4.8928, 2.72055, -1.86628, -5.01358, 2.72055, -1.86628, -3.83778, 5.8409, -1.61084, -3.79355, 5.72124, -1.61084, -4.8128, 4.86584, -1.61084, -4.8128, 4.68698, -1.61084, -3.88108, 5.85324, -1.82628, -3.88108, 5.85324, -1.65084, -4.82452, 4.90981, -1.82628, -4.82452, 4.90981, -1.65084, -4.8528, 4.55038, -1.65084, -4.8528, 4.55038, -1.82628, -4.8528, 2.72055, -1.65084, -4.8528, 2.72055, -1.82628, -5.05694, 4.72167, -1.65084, -5.05694, 4.84153, -1.61084, -5.05694, 4.67597, 0, -5.05694, 4.84153, 0, -5.01694, 4.88153, -1.61084, -4.8928, 4.88153, -1.61084, -5.01694, 4.88153, 0, -4.8928, 4.88153, 0, -5.05694, 4.68055, -1.82628, -5.05694, 4.72167, -1.65084, -5.05694, 2.72055, -1.82628, -5.05694, 2.72055, -1.65084, -4.8928, 4.88153, -1.82628, -5.01694, 4.88153, -1.82628, 1.7674, 1.67353, 1.14102, 1.7674, 1.67353, 1.31645, 1.94284, 1.67353, 1.14102, 1.94284, 1.67353, 1.31645, -5.05694, 4.84153, -1.82628, -5.01303, 4.83761, -1.86628, -4.88939, 4.60768, -1.57086, -5.02035, 4.66328, -1.57086, -4.8928, 4.63595, 0, -5.01694, 4.63595, 0, 0.643819, 5.19645, -1.61084, 0.643819, 5.07862, -1.61084, -1.5868, 5.82861, -1.61084, -1.5868, 5.71079, -1.61084, 0.722332, 5.22669, -1.65084, -1.8928, 5.84092, -1.61084, -1.8928, 5.72122, -1.61084, -1.6668, 5.8607, -1.90043, -1.8128, 5.8607, -1.90043, -1.6668, 5.23543, -2.92592, -1.8128, 5.23543, -2.92592, -1.6268, 5.70248, -1.90628, -1.6268, 5.80923, -1.90628, -4.8928, 2.68055, -1.65084, -4.8928, 2.68055, -1.82628, -5.01694, 2.68055, -1.65084, -5.01694, 2.68055, -1.82628, -4.8528, 4.84153, -1.57084, -4.8528, 4.63153, -1.57084, -4.8528, 4.84153, 0, -4.8528, 4.67597, 0, -5.01694, 4.61915, -1.61084, -4.8928, 4.56432, -1.61084, -5.01694, 2.72055, -1.61084, -4.8928, 2.72055, -1.61084, 1.76861, 1.71353, 1.10102, 1.94163, 1.71353, 1.10102, 1.76866, 1.92897, 1.10102, 1.94158, 1.92897, 1.10102, 1.94182, 2.92897, 1.86628, 1.94192, 1.92897, 1.35645, 1.76881, 2.92897, 1.86628, 1.76866, 1.92897, 1.35645, 1.98284, 2.92897, 1.65225, 1.98284, 1.92897, 1.14243, 1.98284, 2.92897, 1.82522, 1.98284, 1.92897, 1.31535, 1.7274, 2.92897, 1.82487, 1.7274, 1.92897, 1.31504, 1.7274, 2.92897, 1.65225, 1.7274, 1.92897, 1.14243, 1.7274, 1.71353, 1.3151, 1.7274, 1.71353, 1.14237, 0.701642, 4.9899, 1.82492, 0.701642, 4.9899, 1.6522, 0.898192, 5.02571, 1.86628, 0.708084, 5.06041, 1.86628, 1.76881, 2.92897, 1.61084, 1.94143, 2.92897, 1.61084, 1.94196, 1.71353, 1.35645, 1.76861, 1.71353, 1.35645, 1.98284, 1.71353, 1.14237, 1.98284, 1.71353, 1.31539, -1.5868, 5.71079, 1.61084, 0.643819, 5.07862, 1.61084, -1.5868, 5.82861, 1.61084, 0.643819, 5.19645, 1.61084, 0.939257, 5.06234, 1.6522, 0.939257, 5.02571, 1.82533, -1.6268, 5.68055, 1.82628, 0.645335, 5.03662, 1.82628, -1.66531, 5.68055, 1.65084, 0.645335, 5.03662, 1.65084, 0.745263, 4.98571, 1.61084, 0.91763, 4.98571, 1.61084, 0.899257, 5.22669, 1.61084, 0.723819, 5.22669, 0, 0.722332, 5.22669, 1.65084, -1.5868, 5.8294, 1.86628, 0.683819, 5.18593, 1.86628, -1.5868, 5.71079, 1.86628, 0.708084, 5.06041, 1.86628, 0.939257, 5.0664, 0, 0.939257, 5.06234, 1.6522, 0.939257, 5.18669, 0, 0.939257, 5.18669, 1.61084, 0.939257, 5.18669, 1.82536, -1.8128, 5.68055, 0, -1.8128, 5.68055, 1.65084, -1.6668, 5.68055, 0, -1.66531, 5.68055, 1.65084, 0.899257, 5.22669, 1.82628, 0.722332, 5.22669, 1.65084, 0.683819, 5.22669, 1.82628, 0.723819, 5.02571, 1.57084, 0.899257, 5.02571, 0, 0.899257, 5.02571, 1.57084, 0.683819, 5.18669, 0, 0.683819, 5.18669, 1.57084, 0.683819, 5.06571, 1.57084, -3.83971, 5.84611, 1.86628, -1.8928, 5.84593, 1.86628, -3.79355, 5.72124, 1.86628, -1.8928, 5.72122, 1.86628, -1.6668, 5.06434, 2.83256, -1.6668, 5.65904, 1.90001, -1.8128, 5.06434, 2.83256, -1.8128, 5.65904, 1.90001, -1.6668, 5.88153, 0, -1.66531, 5.88153, 1.65084, -1.8128, 5.88153, 1.65084, -1.6268, 5.72055, 0, -1.6268, 5.72055, 1.57084, -1.6268, 5.84153, 0, -1.6268, 5.84153, 1.57084, -1.8528, 2.91289, 2.90628, -1.8528, 5.06477, 2.90628, -1.8528, 2.93333, 3.01427, -1.8528, 5.07496, 3.01397, -3.7385, 5.68055, 1.82628, -1.8528, 5.68055, 1.82628, -3.7385, 5.68055, 1.65084, -1.8128, 5.68055, 1.65084, -1.8128, 5.88153, 1.65084, -1.66531, 5.88153, 1.65084, -1.8528, 5.88153, 1.82628, -1.6268, 5.88153, 1.82628, -3.8128, 5.88153, 1.65084, -3.8128, 5.88153, 1.82628, -1.8528, 5.1951, 2.91343, -1.6268, 2.93333, 3.01427, -1.6268, 5.07496, 3.01397, -1.6268, 2.91289, 2.90628, -1.6268, 5.06477, 2.90628, -1.8128, 2.93333, 3.05295, -1.8128, 5.04344, 3.05295, -1.6668, 2.93333, 3.05295, -1.6668, 5.04344, 3.05295, -1.8528, 1.97222, 1.60479, -1.8528, 1.79765, 1.60479, -1.8528, 2.7519, 2.93122, -1.6668, 2.01609, 1.59721, -1.6668, 2.9099, 2.83386, -1.8128, 2.01609, 1.59721, -1.8128, 2.9099, 2.83386, -1.6668, 2.97333, 2.86628, -1.6668, 5.00284, 2.86628, -1.8128, 2.97333, 2.86628, -1.8128, 5.00284, 2.86628, -1.8128, 5.23543, 2.92592, -1.6668, 5.23543, 2.92592, -1.8128, 5.11413, 3.0273, -1.6668, 5.11413, 3.0273, -1.8128, 1.73419, 1.59727, -1.8128, 2.70545, 2.94784, -1.6668, 1.73419, 1.59727, -1.6668, 2.70545, 2.94784, -1.6268, 2.7519, 2.93122, -1.6268, 1.79765, 1.60479, -1.6268, 1.97222, 1.60479, -4.82473, 4.61888, 1.82628, -3.80658, 5.65206, 1.82628, -4.82473, 4.61888, 1.65084, -3.80658, 5.65206, 1.65084, -1.6668, 1.75084, 1.5648, -1.6668, 1.95266, 1.5648, -1.8128, 1.75084, 1.5648, -1.8128, 1.95266, 1.5648, -4.8528, 4.83386, 1.86628, -4.8928, 4.60579, 1.86628, -1.8528, 5.84153, 0, -1.8528, 5.84153, 1.57084, -1.8528, 5.72055, 1.57084, -1.8528, 5.70248, 1.90628, -1.8528, 5.80923, 1.90628, -1.6268, 5.1951, 2.91343, -5.01694, 2.72055, 1.86628, -5.01694, 4.66288, 1.86628, -4.8928, 2.72055, 1.86628, -4.8128, 4.68698, 1.61084, -3.79355, 5.72124, 1.61084, -4.8128, 4.86584, 1.61084, -3.83778, 5.8409, 1.61084, -4.82452, 4.90981, 1.65084, -3.88108, 5.85324, 1.65084, -4.82452, 4.90981, 1.82628, -3.88108, 5.85324, 1.82628, -4.8528, 2.72055, 1.82628, -4.8528, 4.55038, 1.82628, -4.8528, 2.72055, 1.65084, -4.8528, 4.55038, 1.65084, -5.05694, 4.84153, 1.61084, -5.05694, 4.67597, 0, -5.05694, 4.72167, 1.65084, -4.8928, 4.88153, 0, -4.8928, 4.88153, 1.61084, -5.01694, 4.88153, 1.61084, -5.05694, 2.72055, 1.65084, -5.05694, 4.72167, 1.65084, -5.05694, 2.72055, 1.82628, -5.05694, 4.68055, 1.82628, -5.01694, 4.88153, 1.82628, -4.8928, 4.88153, 1.82628, 0.683819, 5.06571, 0, 0.723819, 5.02571, 0, 0.683819, 5.18669, 0, 0.723819, 5.22669, 0, 0.899257, 5.22669, 0, 0.939257, 5.18669, 0, 0.939257, 5.0664, 0, 0.899257, 5.02571, 0, -5.05694, 4.84153, 1.82628, -4.8528, 4.67597, 0, -4.8528, 4.63153, 1.57084, -4.8528, 4.84153, 1.57084, -5.01694, 4.63595, 0, -5.02035, 4.66328, 1.57086, -4.8928, 4.63595, 0, -4.88939, 4.60768, 1.57086, -1.6668, 5.68055, 0, -1.6268, 5.72055, 0, -1.8128, 5.68055, 0, -1.8528, 5.72055, 0, -1.8528, 5.84153, 0, -1.8128, 5.88153, 0, -1.6668, 5.88153, 0, -1.6268, 5.84153, 0, 0.898233, 5.18596, 1.86628, 0.708084, 5.06041, 1.86628, 0.722332, 5.22669, 1.65084, 0.683819, 5.22669, 1.82628, -4.8928, 4.63595, 0, -4.8528, 4.67597, 0, -5.01694, 4.63595, 0, -5.05694, 4.67597, 0, -5.05694, 4.84153, 0, -5.01694, 4.88153, 0, -4.8928, 4.88153, 0, -4.8528, 4.84153, 0, -1.8928, 5.72122, 1.61084, -1.8928, 5.84092, 1.61084, -1.8128, 5.23543, 2.92592, -1.8128, 5.8607, 1.90043, -1.6668, 5.23543, 2.92592, -1.6668, 5.8607, 1.90043, -1.6268, 5.80923, 1.90628, -1.6268, 5.70248, 1.90628, -5.01694, 2.68055, 1.82628, -4.8928, 2.68055, 1.82628, -5.01694, 2.68055, 1.65084, -4.8928, 2.68055, 1.65084, -4.8928, 2.72055, 1.61084, -4.8928, 4.56432, 1.61084, -5.01694, 2.72055, 1.61084, -5.01694, 4.61915, 1.61084, -5.01694, 4.83416, 1.86628, 1.76861, 1.71353, -1.10102, 1.7674, 1.67353, -1.14102, 1.7274, 1.71353, -1.14237, 1.7274, 1.71353, -1.3151, 1.7674, 1.67353, -1.31645, 1.76861, 1.71353, -1.35645, 1.98284, 1.71353, -1.14196, 1.94284, 1.67353, -1.14102, 1.94163, 1.71353, -1.10102, 1.94193, 1.71353, -1.35645, 1.94284, 1.67353, -1.31645, 1.98284, 1.71353, -1.31539, 0.745263, 4.98571, -1.61084, 0.723819, 5.02571, -1.57084, 0.683819, 5.06571, -1.57084, 0.643819, 5.07862, -1.61084, 0.722332, 5.22669, -1.65084, 0.899257, 5.22669, -1.82628, 0.939257, 5.18669, -1.82536, -1.66531, 5.68055, -1.65084, -1.66531, 5.88153, -1.65084, -1.6668, 5.8607, -1.90043, -1.6268, 5.88153, -1.82628, -1.8128, 5.68055, -1.65084, -1.8128, 5.88153, -1.65084, -1.8528, 5.88153, -1.82628, -1.8128, 5.8607, -1.90043, -3.79355, 5.72124, -1.61084, -3.83778, 5.8409, -1.61084, -3.84071, 5.84881, -1.86628, -4.8128, 4.68698, -1.61084, -4.8528, 4.63153, -1.57084, -4.88939, 4.60768, -1.57086, -4.8928, 4.56432, -1.61084, -4.8528, 4.84153, -1.57084, -4.8128, 4.86584, -1.61084, -4.82452, 4.90981, -1.65084, -4.8528, 4.83718, -1.86628, -5.05694, 4.72167, -1.65084, -5.01303, 4.83761, -1.86628, -5.05694, 4.84153, -1.82628, -4.8928, 2.72055, -1.61084, -5.01694, 2.72055, -1.61084, 1.7274, 1.71353, 1.14237, 1.7674, 1.67353, 1.14102, 1.76861, 1.71353, 1.10102, 1.76861, 1.71353, 1.35645, 1.7674, 1.67353, 1.31645, 1.7274, 1.71353, 1.3151, 1.94163, 1.71353, 1.10102, 1.94284, 1.67353, 1.14102, 1.98284, 1.71353, 1.14237, 1.98284, 1.71353, 1.31539, 1.94284, 1.67353, 1.31645, 1.94196, 1.71353, 1.35645, 0.643819, 5.07862, 1.61084, 0.683819, 5.06571, 1.57084, 0.723819, 5.02571, 1.57084, 0.745263, 4.98571, 1.61084, 0.722332, 5.22669, 1.65084, 0.939257, 5.18669, 1.82536, 0.899257, 5.22669, 1.82628, -1.66531, 5.68055, 1.65084, -1.66531, 5.88153, 1.65084, -1.6268, 5.88153, 1.82628, -1.6668, 5.8607, 1.90043, -1.8128, 5.68055, 1.65084, -1.8128, 5.88153, 1.65084, -1.8128, 5.8607, 1.90043, -1.8528, 5.88153, 1.82628, -3.79355, 5.72124, 1.61084, -3.83778, 5.8409, 1.61084, -3.83971, 5.84611, 1.86628, -4.8928, 4.56432, 1.61084, -4.88939, 4.60768, 1.57086, -4.8528, 4.63153, 1.57084, -4.8128, 4.68698, 1.61084, -4.8128, 4.86584, 1.61084, -4.8528, 4.84153, 1.57084, -4.8528, 4.83386, 1.86628, -5.05694, 4.72167, 1.65084, -5.05694, 4.84153, 1.82628, -5.01694, 4.83416, 1.86628, -4.8928, 2.72055, 1.61084, -5.01694, 2.72055, 1.61084, 1.7274, 1.92897, -1.14243, 1.7274, 1.71353, -1.14237, 1.7274, 2.92897, -1.65225, 1.76881, 2.92897, -1.61084, 0.898365, 5.1858, -1.86628, 0.683819, 5.18578, -1.86628, -1.5868, 5.82926, -1.86628, -1.5868, 5.71079, -1.61084, -1.6268, 5.80923, -1.90628, -1.6268, 5.1951, -2.91343, -1.8928, 5.84092, -1.61084, -1.8928, 5.72122, -1.61084, -1.8928, 5.8487, -1.86628, -5.05694, 4.84153, -1.61084, -5.05694, 2.72055, -1.65084, 0.683819, 5.18669, -1.57084, 0.683819, 5.18669, 0, -1.6668, 5.68055, 0, -1.8128, 5.68055, 0, -1.8528, 5.84153, -1.57084, -1.8528, 5.84153, 0, -1.6668, 5.88153, 0, -5.01694, 4.88153, 0, -5.01694, 4.88153, -1.61084, -4.8928, 4.88153, -1.61084, -4.8928, 4.88153, 0, -5.05694, 4.67597, 0, 1.7674, 1.67353, 1.14102, 1.7674, 1.67353, 1.31645, 1.76866, 1.92897, 1.10102, 1.76861, 1.71353, 1.10102, 1.7674, 1.67353, 1.31645, 1.94284, 1.67353, 1.31645, 1.94284, 1.67353, 1.14102, 1.7674, 1.67353, 1.14102, 1.76881, 2.92897, 1.61084, 1.7274, 2.92897, 1.65225, 0.701642, 4.9899, 1.6522, 0.683819, 5.22669, 1.82628, 0.643819, 5.19645, 1.61084, -1.5868, 5.82861, 1.61084, 0.645335, 5.03662, 1.65084, -1.8528, 5.80923, 1.90628, -1.8528, 5.1951, 2.91343, -3.8128, 5.88153, 1.65084, -3.7385, 5.68055, 1.65084, -3.8128, 5.88153, 1.82628, -4.82452, 4.90981, 1.65084, -3.88108, 5.85324, 1.65084, -3.80658, 5.65206, 1.65084, -4.82473, 4.61888, 1.65084, -3.88108, 5.85324, 1.82628, -4.82452, 4.90981, 1.82628, -5.01694, 4.88153, 1.82628, -5.01694, 4.88153, 1.61084, -4.8928, 4.88153, 1.82628, -5.01694, 4.88153, 1.82628, -4.8928, 2.68055, 1.65084, -5.01694, 2.68055, 1.65084, -5.01694, 4.61915, 1.61084, -4.8528, 4.55038, 1.65084, -4.8528, 2.72055, 1.65084, 0.723819, 5.22669, 0, -1.6268, 5.72055, 0, -1.6268, 5.72055, 1.57084, -1.8528, 5.72055, 1.57084, -1.8528, 5.72055, 0, -1.8128, 5.88153, 0, -1.6268, 5.84153, 1.57084, -1.6268, 5.84153, 0, -5.05694, 4.84153, 0, -5.05694, 4.84153, 1.61084, -4.8528, 4.84153, 0, -5.01694, 4.63595, 0, -5.02035, 4.66328, 1.57086, 0.143439, 3.61365, -0.393873, 0.143439, 3.61365, 0.396529, 0.161066, 3.6679, -0.450913, 0.161066, 3.6679, 0.453569, -0.100808, 2.86193, 0.396529, -0.118435, 2.80769, 0.453569, 0.075905, 3.61456, 0.386529, -0.155982, 2.90089, 0.386529, 0.127748, 3.59772, 0.386529, -0.104138, 2.88405, 0.386529, -0.182879, 2.81811, -0.450913, -0.182879, 2.81811, 0.453569, -0.131035, 2.80127, -0.450913, -0.131035, 2.80127, 0.453569, 0.078995, 3.62408, -0.373873, 0.078995, 3.62408, 0.376529, 0.130839, 3.60723, -0.373873, 0.130839, 3.60723, 0.376529, -0.155982, 2.90089, -0.383873, 0.075905, 3.61456, -0.383873, -0.104138, 2.88405, -0.383873, 0.127748, 3.59772, -0.383873, -0.100808, 2.86193, -0.393873, -0.118435, 2.80769, -0.450913, -0.1893, 2.83071, -0.450913, -0.171673, 2.88496, -0.393873, -0.1893, 2.83071, 0.453569, -0.171673, 2.88496, 0.396529, 0.102802, 3.69735, 0.453569, 0.102802, 3.69735, -0.450913, 0.154645, 3.6805, 0.453569, 0.154645, 3.6805, -0.450913, 0.099711, 3.68783, -0.460913, -0.179789, 2.82762, -0.460913, 0.151555, 3.67099, -0.460913, -0.127945, 2.81078, -0.460913, 0.090201, 3.69092, -0.450913, 0.072574, 3.63668, -0.393873, 0.090201, 3.69092, 0.453569, 0.072574, 3.63668, 0.396529, -0.179789, 2.82762, 0.463569, 0.099711, 3.68783, 0.463569, -0.127945, 2.81078, 0.463569, 0.151555, 3.67099, 0.463569, -0.171673, 2.88496, 0.396529, -0.159073, 2.89138, 0.376529, -0.155982, 2.90089, 0.386529, 0.072574, 3.63668, 0.396529, 0.075905, 3.61456, 0.386529, 0.078995, 3.62408, 0.376529, -0.155982, 2.90089, -0.383873, -0.159073, 2.89138, -0.373873, -0.171673, 2.88496, -0.393873, 0.072574, 3.63668, -0.393873, 0.078995, 3.62408, -0.373873, 0.075905, 3.61456, -0.383873, -0.179789, 2.82762, 0.463569, -0.182879, 2.81811, 0.453569, -0.1893, 2.83071, 0.453569, -0.1893, 2.83071, -0.450913, -0.182879, 2.81811, -0.450913, -0.179789, 2.82762, -0.460913, 0.102802, 3.69735, 0.453569, 0.099711, 3.68783, 0.463569, 0.090201, 3.69092, 0.453569, 0.099711, 3.68783, -0.460913, 0.102802, 3.69735, -0.450913, 0.090201, 3.69092, -0.450913, -0.104138, 2.88405, 0.386529, -0.107229, 2.87454, 0.376529, -0.100808, 2.86193, 0.396529, -0.100808, 2.86193, -0.393873, -0.107229, 2.87454, -0.373873, -0.104138, 2.88405, -0.383873, 0.130839, 3.60723, 0.376529, 0.127748, 3.59772, 0.386529, 0.143439, 3.61365, 0.396529, 0.127748, 3.59772, -0.383873, 0.130839, 3.60723, -0.373873, 0.143439, 3.61365, -0.393873, -0.118435, 2.80769, 0.453569, -0.131035, 2.80127, 0.453569, -0.127945, 2.81078, 0.463569, -0.127945, 2.81078, -0.460913, -0.131035, 2.80127, -0.450913, -0.118435, 2.80769, -0.450913, 0.161066, 3.6679, 0.453569, 0.151555, 3.67099, 0.463569, 0.154645, 3.6805, 0.453569, 0.161066, 3.6679, -0.450913, 0.154645, 3.6805, -0.450913, 0.151555, 3.67099, -0.460913, -0.159073, 2.89138, -0.373873, -0.159073, 2.89138, 0.376529, -0.171673, 2.88496, -0.393873, -0.171673, 2.88496, 0.396529, -0.155982, 2.90089, 0.386529, 0.075905, 3.61456, 0.386529, -0.171673, 2.88496, 0.396529, 0.072574, 3.63668, 0.396529, 0.078995, 3.62408, 0.376529, 0.078995, 3.62408, -0.373873, 0.072574, 3.63668, 0.396529, 0.072574, 3.63668, -0.393873, 0.075905, 3.61456, -0.383873, -0.155982, 2.90089, -0.383873, 0.072574, 3.63668, -0.393873, -0.171673, 2.88496, -0.393873, -0.1893, 2.83071, -0.450913, -0.1893, 2.83071, 0.453569, -0.182879, 2.81811, -0.450913, -0.182879, 2.81811, 0.453569, -0.1893, 2.83071, 0.453569, 0.090201, 3.69092, 0.453569, -0.179789, 2.82762, 0.463569, 0.099711, 3.68783, 0.463569, 0.090201, 3.69092, 0.453569, 0.090201, 3.69092, -0.450913, 0.102802, 3.69735, 0.453569, 0.102802, 3.69735, -0.450913, 0.090201, 3.69092, -0.450913, -0.1893, 2.83071, -0.450913, 0.099711, 3.68783, -0.460913, -0.179789, 2.82762, -0.460913, -0.100808, 2.86193, -0.393873, -0.100808, 2.86193, 0.396529, -0.107229, 2.87454, -0.373873, -0.107229, 2.87454, 0.376529, -0.100808, 2.86193, 0.396529, 0.143439, 3.61365, 0.396529, -0.104138, 2.88405, 0.386529, 0.127748, 3.59772, 0.386529, 0.143439, 3.61365, 0.396529, 0.143439, 3.61365, -0.393873, 0.130839, 3.60723, 0.376529, 0.130839, 3.60723, -0.373873, 0.143439, 3.61365, -0.393873, -0.100808, 2.86193, -0.393873, 0.127748, 3.59772, -0.383873, -0.104138, 2.88405, -0.383873, -0.131035, 2.80127, -0.450913, -0.131035, 2.80127, 0.453569, -0.118435, 2.80769, -0.450913, -0.118435, 2.80769, 0.453569, -0.127945, 2.81078, 0.463569, 0.151555, 3.67099, 0.463569, -0.118435, 2.80769, 0.453569, 0.161066, 3.6679, 0.453569, 0.154645, 3.6805, 0.453569, 0.154645, 3.6805, -0.450913, 0.161066, 3.6679, 0.453569, 0.161066, 3.6679, -0.450913, 0.151555, 3.67099, -0.460913, -0.127945, 2.81078, -0.460913, 0.161066, 3.6679, -0.450913, -0.118435, 2.80769, -0.450913, -0.104138, 2.88405, 0.386529, -0.155982, 2.90089, 0.386529, -0.107229, 2.87454, 0.376529, -0.159073, 2.89138, 0.376529, -0.155982, 2.90089, -0.383873, -0.104138, 2.88405, -0.383873, -0.159073, 2.89138, -0.373873, -0.107229, 2.87454, -0.373873, 0.154645, 3.6805, -0.450913, 0.102802, 3.69735, -0.450913, 0.151555, 3.67099, -0.460913, 0.099711, 3.68783, -0.460913, -0.182879, 2.81811, -0.450913, -0.131035, 2.80127, -0.450913, -0.179789, 2.82762, -0.460913, -0.127945, 2.81078, -0.460913, -0.131035, 2.80127, 0.453569, -0.182879, 2.81811, 0.453569, -0.127945, 2.81078, 0.463569, -0.179789, 2.82762, 0.463569, 0.102802, 3.69735, 0.453569, 0.154645, 3.6805, 0.453569, 0.099711, 3.68783, 0.463569, 0.151555, 3.67099, 0.463569, 0.078995, 3.62408, -0.373873, 0.130839, 3.60723, -0.373873, 0.075905, 3.61456, -0.383873, 0.127748, 3.59772, -0.383873, 0.130839, 3.60723, 0.376529, 0.078995, 3.62408, 0.376529, 0.127748, 3.59772, 0.386529, 0.075905, 3.61456, 0.386529, -0.159073, 2.89138, 0.376529, -0.159073, 2.89138, -0.373873, -0.107229, 2.87454, 0.376529, -0.107229, 2.87454, -0.373873, -0.138583, 2.88447, -0.383873, -0.138583, 2.88447, 0.386529, 0.099484, 3.61717, -0.383873, 0.099484, 3.61717, 0.386529, 0.086615, 3.62135, 0.386529, -0.151452, 2.88865, 0.386529, 0.086615, 3.62135, -0.383873, -0.151452, 2.88865, -0.383873, 0.099484, 3.61717, -0.383873, 0.099484, 3.61717, 0.386529, 0.086615, 3.62135, -0.383873, 0.086615, 3.62135, 0.386529, -0.138583, 2.88447, 0.386529, -0.138583, 2.88447, -0.383873, -0.151452, 2.88865, 0.386529, -0.151452, 2.88865, -0.383873, -0.138583, 2.88447, -0.383873, 0.099484, 3.61717, -0.383873, -0.151452, 2.88865, -0.383873, 0.086615, 3.62135, -0.383873, 0.099484, 3.61717, 0.386529, -0.138583, 2.88447, 0.386529, 0.086615, 3.62135, 0.386529, -0.151452, 2.88865, 0.386529, 0.335369, 2.67697, -0.34917, -0.152775, 2.83153, -0.382942, 0.373783, 2.71668, -0.34917, -0.13507, 2.88601, -0.382983, 0.776225, 1.92269, -0.35917, 0.385743, 2.7155, -0.35917, 0.776225, 1.92269, -0.416154, 0.385743, 2.7155, -0.416154, 0.373783, 2.71668, -0.426154, -0.13507, 2.88601, -0.459967, 0.335369, 2.67697, -0.426154, -0.152775, 2.83153, -0.459926, -0.144605, 2.88896, -0.393607, -0.162214, 2.83476, -0.393607, -0.144605, 2.88896, -0.45059, -0.162214, 2.83476, -0.45059, 0.704492, 1.89488, -0.416154, 0.332171, 2.66015, -0.416154, 0.704492, 1.89488, -0.35917, 0.332171, 2.66015, -0.35917, 0.371836, 2.72763, -0.359815, -0.132027, 2.89531, -0.393001, 0.371836, 2.72763, -0.41676, -0.132027, 2.89531, -0.449946, 0.576122, 3.45236, -0.416798, 0.102089, 3.60243, -0.449902, 0.576122, 3.45236, -0.359858, 0.102089, 3.60243, -0.392963, 0.76666, 1.91902, -0.426154, 0.373783, 2.71668, -0.426154, 0.714044, 1.89862, -0.426154, 0.335369, 2.67697, -0.426154, 0.718191, 1.8895, -0.416154, 0.718191, 1.8895, -0.35917, 0.77132, 1.9101, -0.416154, 0.77132, 1.9101, -0.35917, 0.714044, 1.89862, -0.34917, 0.335369, 2.67697, -0.34917, 0.76666, 1.91902, -0.34917, 0.373783, 2.71668, -0.34917, 0.59334, 3.45729, -0.34917, 0.105128, 3.61186, -0.382942, 0.631534, 3.49676, -0.34917, 0.122748, 3.66607, -0.382983, 1.27934, 1.93988, -0.35917, 0.642971, 3.49542, -0.35917, 1.27934, 1.93988, -0.416154, 0.642971, 3.49542, -0.416154, 0.631534, 3.49676, -0.426154, 0.122748, 3.66607, -0.459967, 0.59334, 3.45729, -0.426154, 0.105128, 3.61186, -0.459926, 0.113255, 3.66916, -0.393607, 0.095646, 3.61496, -0.393607, 0.113255, 3.66916, -0.45059, 0.095646, 3.61496, -0.45059, 1.20759, 1.91206, -0.416154, 0.589407, 3.44007, -0.416154, 1.20759, 1.91206, -0.35917, 0.589407, 3.44007, -0.35917, 0.629697, 3.50783, -0.359815, 0.125834, 3.67551, -0.393001, 0.629697, 3.50783, -0.41676, 0.125834, 3.67551, -0.449946, 1.26994, 1.93624, -0.426154, 0.631534, 3.49676, -0.426154, 1.21701, 1.91571, -0.426154, 0.59334, 3.45729, -0.426154, 1.22067, 1.9064, -0.416154, 1.22067, 1.9064, -0.35917, 1.2738, 1.92701, -0.416154, 1.2738, 1.92701, -0.35917, 1.21701, 1.91571, -0.34917, 0.59334, 3.45729, -0.34917, 1.26994, 1.93624, -0.34917, 0.631534, 3.49676, -0.34917, -0.152775, 2.83153, -0.382942, -0.155771, 2.82223, -0.392963, -0.162214, 2.83476, -0.393607, -0.132027, 2.89531, -0.393001, -0.13507, 2.88601, -0.382983, -0.144605, 2.88896, -0.393607, -0.162214, 2.83476, -0.45059, -0.155771, 2.82223, -0.449902, -0.152775, 2.83153, -0.459926, -0.13507, 2.88601, -0.459967, -0.132027, 2.89531, -0.449946, -0.144605, 2.88896, -0.45059, 0.335369, 2.67697, -0.34917, 0.332171, 2.66015, -0.35917, 0.318262, 2.67216, -0.359858, 0.318262, 2.67216, -0.416798, 0.332171, 2.66015, -0.416154, 0.335369, 2.67697, -0.426154, 0.371836, 2.72763, -0.359815, 0.385743, 2.7155, -0.35917, 0.373783, 2.71668, -0.34917, 0.373783, 2.71668, -0.426154, 0.385743, 2.7155, -0.416154, 0.371836, 2.72763, -0.41676, 0.718191, 1.8895, -0.35917, 0.704492, 1.89488, -0.35917, 0.714044, 1.89862, -0.34917, 0.714044, 1.89862, -0.426154, 0.704492, 1.89488, -0.416154, 0.718191, 1.8895, -0.416154, 0.77132, 1.9101, -0.35917, 0.76666, 1.91902, -0.34917, 0.776225, 1.92269, -0.35917, 0.77132, 1.9101, -0.416154, 0.776225, 1.92269, -0.416154, 0.76666, 1.91902, -0.426154, 0.105128, 3.61186, -0.382942, 0.102089, 3.60243, -0.392963, 0.095646, 3.61496, -0.393607, 0.125834, 3.67551, -0.393001, 0.122748, 3.66607, -0.382983, 0.113255, 3.66916, -0.393607, 0.095646, 3.61496, -0.45059, 0.102089, 3.60243, -0.449902, 0.105128, 3.61186, -0.459926, 0.122748, 3.66607, -0.459967, 0.125834, 3.67551, -0.449946, 0.113255, 3.66916, -0.45059, 0.59334, 3.45729, -0.34917, 0.589407, 3.44007, -0.35917, 0.576122, 3.45236, -0.359858, 0.576122, 3.45236, -0.416798, 0.589407, 3.44007, -0.416154, 0.59334, 3.45729, -0.426154, 0.629697, 3.50783, -0.359815, 0.642971, 3.49542, -0.35917, 0.631534, 3.49676, -0.34917, 0.631534, 3.49676, -0.426154, 0.642971, 3.49542, -0.416154, 0.629697, 3.50783, -0.41676, 1.22067, 1.9064, -0.35917, 1.20759, 1.91206, -0.35917, 1.21701, 1.91571, -0.34917, 1.21701, 1.91571, -0.426154, 1.20759, 1.91206, -0.416154, 1.22067, 1.9064, -0.416154, 1.2738, 1.92701, -0.35917, 1.26994, 1.93624, -0.34917, 1.27934, 1.93988, -0.35917, 1.2738, 1.92701, -0.416154, 1.27934, 1.93988, -0.416154, 1.26994, 1.93624, -0.426154, -0.162214, 2.83476, -0.45059, -0.162214, 2.83476, -0.393607, -0.155771, 2.82223, -0.449902, -0.155771, 2.82223, -0.392963, -0.162214, 2.83476, -0.393607, -0.144605, 2.88896, -0.393607, -0.152775, 2.83153, -0.382942, -0.13507, 2.88601, -0.382983, -0.144605, 2.88896, -0.393607, -0.144605, 2.88896, -0.45059, -0.132027, 2.89531, -0.393001, -0.132027, 2.89531, -0.449946, -0.144605, 2.88896, -0.45059, -0.162214, 2.83476, -0.45059, -0.13507, 2.88601, -0.459967, -0.152775, 2.83153, -0.459926, 0.318262, 2.67216, -0.416798, 0.318262, 2.67216, -0.359858, 0.332171, 2.66015, -0.416154, 0.332171, 2.66015, -0.35917, 0.371836, 2.72763, -0.359815, 0.371836, 2.72763, -0.41676, 0.385743, 2.7155, -0.35917, 0.385743, 2.7155, -0.416154, 0.371836, 2.72763, -0.41676, -0.132027, 2.89531, -0.449946, 0.373783, 2.71668, -0.426154, -0.13507, 2.88601, -0.459967, -0.132027, 2.89531, -0.393001, 0.371836, 2.72763, -0.359815, -0.13507, 2.88601, -0.382983, 0.373783, 2.71668, -0.34917, 0.318262, 2.67216, -0.359858, -0.155771, 2.82223, -0.392963, 0.335369, 2.67697, -0.34917, -0.152775, 2.83153, -0.382942, -0.155771, 2.82223, -0.449902, 0.318262, 2.67216, -0.416798, -0.152775, 2.83153, -0.459926, 0.335369, 2.67697, -0.426154, 0.704492, 1.89488, -0.416154, 0.704492, 1.89488, -0.35917, 0.718191, 1.8895, -0.416154, 0.718191, 1.8895, -0.35917, 0.714044, 1.89862, -0.34917, 0.76666, 1.91902, -0.34917, 0.718191, 1.8895, -0.35917, 0.77132, 1.9101, -0.35917, 0.776225, 1.92269, -0.35917, 0.776225, 1.92269, -0.416154, 0.77132, 1.9101, -0.35917, 0.77132, 1.9101, -0.416154, 0.76666, 1.91902, -0.426154, 0.714044, 1.89862, -0.426154, 0.77132, 1.9101, -0.416154, 0.718191, 1.8895, -0.416154, 0.714044, 1.89862, -0.426154, 0.335369, 2.67697, -0.426154, 0.704492, 1.89488, -0.416154, 0.332171, 2.66015, -0.416154, 0.373783, 2.71668, -0.426154, 0.76666, 1.91902, -0.426154, 0.385743, 2.7155, -0.416154, 0.776225, 1.92269, -0.416154, 0.76666, 1.91902, -0.34917, 0.373783, 2.71668, -0.34917, 0.776225, 1.92269, -0.35917, 0.385743, 2.7155, -0.35917, 0.335369, 2.67697, -0.34917, 0.714044, 1.89862, -0.34917, 0.332171, 2.66015, -0.35917, 0.704492, 1.89488, -0.35917, 0.095646, 3.61496, -0.45059, 0.095646, 3.61496, -0.393607, 0.102089, 3.60243, -0.449902, 0.102089, 3.60243, -0.392963, 0.095646, 3.61496, -0.393607, 0.113255, 3.66916, -0.393607, 0.105128, 3.61186, -0.382942, 0.122748, 3.66607, -0.382983, 0.113255, 3.66916, -0.393607, 0.113255, 3.66916, -0.45059, 0.125834, 3.67551, -0.393001, 0.125834, 3.67551, -0.449946, 0.113255, 3.66916, -0.45059, 0.095646, 3.61496, -0.45059, 0.122748, 3.66607, -0.459967, 0.105128, 3.61186, -0.459926, 0.576122, 3.45236, -0.416798, 0.576122, 3.45236, -0.359858, 0.589407, 3.44007, -0.416154, 0.589407, 3.44007, -0.35917, 0.629697, 3.50783, -0.359815, 0.629697, 3.50783, -0.41676, 0.642971, 3.49542, -0.35917, 0.642971, 3.49542, -0.416154, 0.629697, 3.50783, -0.41676, 0.125834, 3.67551, -0.449946, 0.631534, 3.49676, -0.426154, 0.122748, 3.66607, -0.459967, 0.125834, 3.67551, -0.393001, 0.629697, 3.50783, -0.359815, 0.122748, 3.66607, -0.382983, 0.631534, 3.49676, -0.34917, 0.576122, 3.45236, -0.359858, 0.102089, 3.60243, -0.392963, 0.59334, 3.45729, -0.34917, 0.105128, 3.61186, -0.382942, 0.102089, 3.60243, -0.449902, 0.576122, 3.45236, -0.416798, 0.105128, 3.61186, -0.459926, 0.59334, 3.45729, -0.426154, 1.20759, 1.91206, -0.416154, 1.20759, 1.91206, -0.35917, 1.22067, 1.9064, -0.416154, 1.22067, 1.9064, -0.35917, 1.21701, 1.91571, -0.34917, 1.26994, 1.93624, -0.34917, 1.22067, 1.9064, -0.35917, 1.2738, 1.92701, -0.35917, 1.27934, 1.93988, -0.35917, 1.27934, 1.93988, -0.416154, 1.2738, 1.92701, -0.35917, 1.2738, 1.92701, -0.416154, 1.26994, 1.93624, -0.426154, 1.21701, 1.91571, -0.426154, 1.2738, 1.92701, -0.416154, 1.22067, 1.9064, -0.416154, 1.21701, 1.91571, -0.426154, 0.59334, 3.45729, -0.426154, 1.20759, 1.91206, -0.416154, 0.589407, 3.44007, -0.416154, 0.631534, 3.49676, -0.426154, 1.26994, 1.93624, -0.426154, 0.642971, 3.49542, -0.416154, 1.27934, 1.93988, -0.416154, 1.26994, 1.93624, -0.34917, 0.631534, 3.49676, -0.34917, 1.27934, 1.93988, -0.35917, 0.642971, 3.49542, -0.35917, 0.59334, 3.45729, -0.34917, 1.21701, 1.91571, -0.34917, 0.589407, 3.44007, -0.35917, 1.20759, 1.91206, -0.35917, 0.318262, 2.67216, -0.416798, -0.155771, 2.82223, -0.449902, 0.318262, 2.67216, -0.359858, -0.155771, 2.82223, -0.392963, -0.13507, 2.88601, 0.385638, -0.152775, 2.83153, 0.385598, 0.373783, 2.71668, 0.351826, 0.335369, 2.67697, 0.351826, 0.385743, 2.7155, 0.41881, 0.385743, 2.7155, 0.361826, 0.776225, 1.92269, 0.41881, 0.776225, 1.92269, 0.361826, -0.152775, 2.83153, 0.462581, -0.13507, 2.88601, 0.462622, 0.335369, 2.67697, 0.42881, 0.373783, 2.71668, 0.42881, -0.162214, 2.83476, 0.453246, -0.162214, 2.83476, 0.396262, -0.144605, 2.88896, 0.453246, -0.144605, 2.88896, 0.396262, 0.332171, 2.66015, 0.361826, 0.332171, 2.66015, 0.41881, 0.704492, 1.89488, 0.361826, 0.704492, 1.89488, 0.41881, -0.132027, 2.89531, 0.452601, -0.132027, 2.89531, 0.395657, 0.371836, 2.72763, 0.419415, 0.371836, 2.72763, 0.36247, 0.102089, 3.60243, 0.395618, 0.102089, 3.60243, 0.452558, 0.576122, 3.45236, 0.362514, 0.576122, 3.45236, 0.419453, 0.335369, 2.67697, 0.42881, 0.373783, 2.71668, 0.42881, 0.714044, 1.89862, 0.42881, 0.76666, 1.91902, 0.42881, 0.77132, 1.9101, 0.361826, 0.718191, 1.8895, 0.361826, 0.77132, 1.9101, 0.41881, 0.718191, 1.8895, 0.41881, 0.373783, 2.71668, 0.351826, 0.335369, 2.67697, 0.351826, 0.76666, 1.91902, 0.351826, 0.714044, 1.89862, 0.351826, 0.122748, 3.66607, 0.385638, 0.105128, 3.61186, 0.385598, 0.631534, 3.49676, 0.351826, 0.59334, 3.45729, 0.351826, 0.642971, 3.49542, 0.41881, 0.642971, 3.49542, 0.361826, 1.27934, 1.93988, 0.41881, 1.27934, 1.93988, 0.361826, 0.105128, 3.61186, 0.462581, 0.122748, 3.66607, 0.462622, 0.59334, 3.45729, 0.42881, 0.631534, 3.49676, 0.42881, 0.095646, 3.61496, 0.453246, 0.095646, 3.61496, 0.396262, 0.113255, 3.66916, 0.453246, 0.113255, 3.66916, 0.396262, 0.589407, 3.44007, 0.361826, 0.589407, 3.44007, 0.41881, 1.20759, 1.91206, 0.361826, 1.20759, 1.91206, 0.41881, 0.125834, 3.67551, 0.452601, 0.125834, 3.67551, 0.395657, 0.629697, 3.50783, 0.419415, 0.629697, 3.50783, 0.36247, 0.59334, 3.45729, 0.42881, 0.631534, 3.49676, 0.42881, 1.21701, 1.91571, 0.42881, 1.26994, 1.93624, 0.42881, 1.2738, 1.92701, 0.361826, 1.22067, 1.9064, 0.361826, 1.2738, 1.92701, 0.41881, 1.22067, 1.9064, 0.41881, 0.631534, 3.49676, 0.351826, 0.59334, 3.45729, 0.351826, 1.26994, 1.93624, 0.351826, 1.21701, 1.91571, 0.351826, -0.162214, 2.83476, 0.396262, -0.155771, 2.82223, 0.395618, -0.152775, 2.83153, 0.385598, -0.144605, 2.88896, 0.396262, -0.13507, 2.88601, 0.385638, -0.132027, 2.89531, 0.395657, -0.152775, 2.83153, 0.462581, -0.155771, 2.82223, 0.452558, -0.162214, 2.83476, 0.453246, -0.144605, 2.88896, 0.453246, -0.132027, 2.89531, 0.452601, -0.13507, 2.88601, 0.462622, 0.318262, 2.67216, 0.362514, 0.332171, 2.66015, 0.361826, 0.335369, 2.67697, 0.351826, 0.335369, 2.67697, 0.42881, 0.332171, 2.66015, 0.41881, 0.318262, 2.67216, 0.419453, 0.373783, 2.71668, 0.351826, 0.385743, 2.7155, 0.361826, 0.371836, 2.72763, 0.36247, 0.371836, 2.72763, 0.419415, 0.385743, 2.7155, 0.41881, 0.373783, 2.71668, 0.42881, 0.714044, 1.89862, 0.351826, 0.704492, 1.89488, 0.361826, 0.718191, 1.8895, 0.361826, 0.718191, 1.8895, 0.41881, 0.704492, 1.89488, 0.41881, 0.714044, 1.89862, 0.42881, 0.776225, 1.92269, 0.361826, 0.76666, 1.91902, 0.351826, 0.77132, 1.9101, 0.361826, 0.76666, 1.91902, 0.42881, 0.776225, 1.92269, 0.41881, 0.77132, 1.9101, 0.41881, 0.095646, 3.61496, 0.396262, 0.102089, 3.60243, 0.395618, 0.105128, 3.61186, 0.385598, 0.113255, 3.66916, 0.396262, 0.122748, 3.66607, 0.385638, 0.125834, 3.67551, 0.395657, 0.105128, 3.61186, 0.462581, 0.102089, 3.60243, 0.452558, 0.095646, 3.61496, 0.453246, 0.113255, 3.66916, 0.453246, 0.125834, 3.67551, 0.452601, 0.122748, 3.66607, 0.462622, 0.576122, 3.45236, 0.362514, 0.589407, 3.44007, 0.361826, 0.59334, 3.45729, 0.351826, 0.59334, 3.45729, 0.42881, 0.589407, 3.44007, 0.41881, 0.576122, 3.45236, 0.419453, 0.631534, 3.49676, 0.351826, 0.642971, 3.49542, 0.361826, 0.629697, 3.50783, 0.36247, 0.629697, 3.50783, 0.419415, 0.642971, 3.49542, 0.41881, 0.631534, 3.49676, 0.42881, 1.21701, 1.91571, 0.351826, 1.20759, 1.91206, 0.361826, 1.22067, 1.9064, 0.361826, 1.22067, 1.9064, 0.41881, 1.20759, 1.91206, 0.41881, 1.21701, 1.91571, 0.42881, 1.27934, 1.93988, 0.361826, 1.26994, 1.93624, 0.351826, 1.2738, 1.92701, 0.361826, 1.26994, 1.93624, 0.42881, 1.27934, 1.93988, 0.41881, 1.2738, 1.92701, 0.41881, -0.155771, 2.82223, 0.395618, -0.162214, 2.83476, 0.396262, -0.155771, 2.82223, 0.452558, -0.162214, 2.83476, 0.453246, -0.13507, 2.88601, 0.385638, -0.144605, 2.88896, 0.396262, -0.152775, 2.83153, 0.385598, -0.162214, 2.83476, 0.396262, -0.132027, 2.89531, 0.452601, -0.144605, 2.88896, 0.453246, -0.132027, 2.89531, 0.395657, -0.144605, 2.88896, 0.396262, -0.152775, 2.83153, 0.462581, -0.162214, 2.83476, 0.453246, -0.13507, 2.88601, 0.462622, -0.144605, 2.88896, 0.453246, 0.332171, 2.66015, 0.361826, 0.318262, 2.67216, 0.362514, 0.332171, 2.66015, 0.41881, 0.318262, 2.67216, 0.419453, 0.385743, 2.7155, 0.41881, 0.371836, 2.72763, 0.419415, 0.385743, 2.7155, 0.361826, 0.371836, 2.72763, 0.36247, -0.13507, 2.88601, 0.462622, -0.132027, 2.89531, 0.452601, 0.373783, 2.71668, 0.42881, 0.371836, 2.72763, 0.419415, 0.373783, 2.71668, 0.351826, 0.371836, 2.72763, 0.36247, -0.13507, 2.88601, 0.385638, -0.132027, 2.89531, 0.395657, -0.152775, 2.83153, 0.385598, -0.155771, 2.82223, 0.395618, 0.335369, 2.67697, 0.351826, 0.318262, 2.67216, 0.362514, 0.335369, 2.67697, 0.42881, 0.318262, 2.67216, 0.419453, -0.152775, 2.83153, 0.462581, -0.155771, 2.82223, 0.452558, 0.718191, 1.8895, 0.361826, 0.704492, 1.89488, 0.361826, 0.718191, 1.8895, 0.41881, 0.704492, 1.89488, 0.41881, 0.77132, 1.9101, 0.361826, 0.76666, 1.91902, 0.351826, 0.718191, 1.8895, 0.361826, 0.714044, 1.89862, 0.351826, 0.77132, 1.9101, 0.41881, 0.776225, 1.92269, 0.41881, 0.77132, 1.9101, 0.361826, 0.776225, 1.92269, 0.361826, 0.718191, 1.8895, 0.41881, 0.714044, 1.89862, 0.42881, 0.77132, 1.9101, 0.41881, 0.76666, 1.91902, 0.42881, 0.332171, 2.66015, 0.41881, 0.335369, 2.67697, 0.42881, 0.704492, 1.89488, 0.41881, 0.714044, 1.89862, 0.42881, 0.776225, 1.92269, 0.41881, 0.76666, 1.91902, 0.42881, 0.385743, 2.7155, 0.41881, 0.373783, 2.71668, 0.42881, 0.385743, 2.7155, 0.361826, 0.373783, 2.71668, 0.351826, 0.776225, 1.92269, 0.361826, 0.76666, 1.91902, 0.351826, 0.704492, 1.89488, 0.361826, 0.714044, 1.89862, 0.351826, 0.332171, 2.66015, 0.361826, 0.335369, 2.67697, 0.351826, 0.102089, 3.60243, 0.395618, 0.095646, 3.61496, 0.396262, 0.102089, 3.60243, 0.452558, 0.095646, 3.61496, 0.453246, 0.122748, 3.66607, 0.385638, 0.113255, 3.66916, 0.396262, 0.105128, 3.61186, 0.385598, 0.095646, 3.61496, 0.396262, 0.125834, 3.67551, 0.452601, 0.113255, 3.66916, 0.453246, 0.125834, 3.67551, 0.395657, 0.113255, 3.66916, 0.396262, 0.105128, 3.61186, 0.462581, 0.095646, 3.61496, 0.453246, 0.122748, 3.66607, 0.462622, 0.113255, 3.66916, 0.453246, 0.589407, 3.44007, 0.361826, 0.576122, 3.45236, 0.362514, 0.589407, 3.44007, 0.41881, 0.576122, 3.45236, 0.419453, 0.642971, 3.49542, 0.41881, 0.629697, 3.50783, 0.419415, 0.642971, 3.49542, 0.361826, 0.629697, 3.50783, 0.36247, 0.122748, 3.66607, 0.462622, 0.125834, 3.67551, 0.452601, 0.631534, 3.49676, 0.42881, 0.629697, 3.50783, 0.419415, 0.631534, 3.49676, 0.351826, 0.629697, 3.50783, 0.36247, 0.122748, 3.66607, 0.385638, 0.125834, 3.67551, 0.395657, 0.105128, 3.61186, 0.385598, 0.102089, 3.60243, 0.395618, 0.59334, 3.45729, 0.351826, 0.576122, 3.45236, 0.362514, 0.59334, 3.45729, 0.42881, 0.576122, 3.45236, 0.419453, 0.105128, 3.61186, 0.462581, 0.102089, 3.60243, 0.452558, 1.22067, 1.9064, 0.361826, 1.20759, 1.91206, 0.361826, 1.22067, 1.9064, 0.41881, 1.20759, 1.91206, 0.41881, 1.2738, 1.92701, 0.361826, 1.26994, 1.93624, 0.351826, 1.22067, 1.9064, 0.361826, 1.21701, 1.91571, 0.351826, 1.2738, 1.92701, 0.41881, 1.27934, 1.93988, 0.41881, 1.2738, 1.92701, 0.361826, 1.27934, 1.93988, 0.361826, 1.22067, 1.9064, 0.41881, 1.21701, 1.91571, 0.42881, 1.2738, 1.92701, 0.41881, 1.26994, 1.93624, 0.42881, 0.589407, 3.44007, 0.41881, 0.59334, 3.45729, 0.42881, 1.20759, 1.91206, 0.41881, 1.21701, 1.91571, 0.42881, 1.27934, 1.93988, 0.41881, 1.26994, 1.93624, 0.42881, 0.642971, 3.49542, 0.41881, 0.631534, 3.49676, 0.42881, 0.642971, 3.49542, 0.361826, 0.631534, 3.49676, 0.351826, 1.27934, 1.93988, 0.361826, 1.26994, 1.93624, 0.351826, 1.20759, 1.91206, 0.361826, 1.21701, 1.91571, 0.351826, 0.589407, 3.44007, 0.361826, 0.59334, 3.45729, 0.351826, -0.155771, 2.82223, 0.395618, -0.155771, 2.82223, 0.452558, 0.318262, 2.67216, 0.362514, 0.318262, 2.67216, 0.419453 )

[node name="Car" type="KinematicBody"]
transform = Transform( 1, 0, 0, 0, 1, 0, 0, 0, 1, 0, 1.75635, 0 )
collision_mask = 3
script = ExtResource( 1 )
engine_torque = SubResource( 1 )

[node name="SuspensionFL" type="CollisionShape" parent="."]
editor/display_folded = true
transform = Transform( 1, 0, 0, 0, -4.37114e-08, 1, 0, -1, -4.37114e-08, 3.99989, -0.0971756, -2.88354 )
shape = SubResource( 2 )
script = ExtResource( 2 )

[node name="Hub" type="Spatial" parent="SuspensionFL"]
transform = Transform( 1, 0, 0, 0, 1, 0, 0, 0, 1, 0.0483897, -0.79022, 0.030411 )

[node name="OffTheRampFrontHub" type="MeshInstance" parent="SuspensionFL/Hub"]
transform = Transform( 1, 0, 0, 0, -4.37114e-08, -1, 0, 1, -4.37114e-08, 0, 0.18554, 0 )
mesh = ExtResource( 3 )
material/0 = ExtResource( 4 )

[node name="Wheel" type="MeshInstance" parent="SuspensionFL/Hub"]
transform = Transform( -1, 0, -8.74228e-08, -8.74228e-08, -4.37114e-08, 1, -3.82137e-15, 1, 4.37114e-08, -0.0482798, 0.76626, -0.039577 )
mesh = ExtResource( 5 )
material/0 = ExtResource( 4 )
material/1 = ExtResource( 6 )

[node name="RayCastFL" type="RayCast" parent="."]
transform = Transform( 1, 0, 0, 0, 1, 0, 0, 0, 1, 3.99469, 0.341354, -3.38042 )
enabled = true
cast_to = Vector3( 0, -5, 0 )
collision_mask = 2

[node name="SuspensionRL" type="CollisionShape" parent="."]
editor/display_folded = true
transform = Transform( 1, 0, 0, 0, -4.37114e-08, 1, 0, -1, -4.37114e-08, -4.00988, -0.0971756, -3.03589 )
shape = SubResource( 2 )
script = ExtResource( 2 )

[node name="Hub" type="Spatial" parent="SuspensionRL"]

[node name="Wheel" type="MeshInstance" parent="SuspensionRL/Hub"]
transform = Transform( -1, 0, -8.74228e-08, -8.74228e-08, -4.37114e-08, 1, -3.82137e-15, 1, 4.37114e-08, 0.00988007, -0.0358901, -0.009166 )
mesh = ExtResource( 5 )
material/0 = ExtResource( 4 )
material/1 = ExtResource( 6 )

[node name="RayCastRL" type="RayCast" parent="."]
transform = Transform( 1, 0, 0, 0, 1, 0, 0, 0, 1, -3.82923, 0.341354, -3.47143 )
enabled = true
cast_to = Vector3( 0, -5, 0 )
collision_mask = 2

[node name="SuspensionFR" type="CollisionShape" parent="."]
editor/display_folded = true
transform = Transform( 1, 0, 0, 0, -4.37114e-08, 1, 0, -1, -4.37114e-08, 3.99989, -0.0971756, 2.85596 )
shape = SubResource( 2 )
script = ExtResource( 2 )

[node name="Hub" type="Spatial" parent="SuspensionFR"]
transform = Transform( 1, 0, 0, 0, 1, 0, 0, 0, 1, 0.0483897, 0.765, 0.066222 )

[node name="OffTheRampFrontHub2" type="MeshInstance" parent="SuspensionFR/Hub"]
transform = Transform( 1, 0, 0, 0, -4.37114e-08, 1, 0, 1, 4.37114e-08, 0, -0.198823, 0 )
mesh = ExtResource( 3 )
material/0 = ExtResource( 4 )

[node name="Wheel" type="MeshInstance" parent="SuspensionFR/Hub"]
transform = Transform( 1, 0, 0, 0, -4.37114e-08, -1, 0, 1, -4.37114e-08, -0.0560923, -0.775952, -0.0665989 )
mesh = ExtResource( 5 )
material/0 = ExtResource( 4 )
material/1 = ExtResource( 6 )

[node name="RayCastFR" type="RayCast" parent="."]
transform = Transform( 1, 0, 0, 0, 1, 0, 0, 0, 1, 3.99469, 0.341354, 3.27196 )
enabled = true
cast_to = Vector3( 0, -5, 0 )
collision_mask = 2

[node name="SuspensionRR" type="CollisionShape" parent="."]
editor/display_folded = true
transform = Transform( 1, 0, 0, 0, -4.37114e-08, 1, 0, -1, -4.37114e-08, -4.00988, -0.0971756, 2.9956 )
shape = SubResource( 2 )
script = ExtResource( 2 )

[node name="Hub" type="Spatial" parent="SuspensionRR"]

[node name="Wheel" type="MeshInstance" parent="SuspensionRR/Hub"]
transform = Transform( 1, 0, 0, 0, -4.37114e-08, -1, 0, 1, -4.37114e-08, 0.00988007, -0.00440001, -0.009166 )
mesh = ExtResource( 5 )
material/0 = ExtResource( 4 )
material/1 = ExtResource( 6 )

[node name="RayCastRR" type="RayCast" parent="."]
transform = Transform( 1, 0, 0, 0, 1, 0, 0, 0, 1, -3.82923, 0.341354, 3.27196 )
enabled = true
cast_to = Vector3( 0, -5, 0 )
collision_mask = 2

[node name="OffTheRampFrame" type="MeshInstance" parent="."]
transform = Transform( 1, 0, 0, 0, 1, 0, 0, 0, 1, 0, -1.76147, 0 )
mesh = ExtResource( 7 )
material/0 = ExtResource( 8 )
material/1 = ExtResource( 8 )
material/2 = ExtResource( 9 )
material/3 = ExtResource( 8 )
material/4 = ExtResource( 8 )
material/5 = ExtResource( 8 )
material/6 = ExtResource( 8 )
material/7 = ExtResource( 10 )
material/8 = ExtResource( 8 )

[node name="OffTheRampUpperBoneFront" type="MeshInstance" parent="OffTheRampFrame"]
transform = Transform( 1, 0, 0, 0, 1, 0, 0, 0, 1, 3.99453, 2.23755, -1.25221 )
mesh = ExtResource( 11 )
material/0 = ExtResource( 10 )
material/1 = ExtResource( 4 )

[node name="OffTheRampUpperBoneFront2" type="MeshInstance" parent="OffTheRampFrame"]
transform = Transform( 1, 0, 0, 0, 0.999048, -0.0436342, 0, -0.0436342, -0.999048, 3.99453, 2.22949, 1.23946 )
mesh = ExtResource( 11 )
material/0 = ExtResource( 10 )
material/1 = ExtResource( 4 )

[node name="OffTheRampLowerBoneFront" type="MeshInstance" parent="OffTheRampFrame"]
transform = Transform( 1, 0, 0, 0, 1, 0, 0, 0, 1, 3.99355, 1.34759, -1.07105 )
mesh = ExtResource( 12 )
material/0 = ExtResource( 10 )
material/1 = ExtResource( 4 )

[node name="OffTheRampLowerBoneFront2" type="MeshInstance" parent="OffTheRampFrame"]
transform = Transform( 1, 0, 0, 0, 1, 0, 0, 0, -1, 3.99355, 1.3693, 1.08684 )
mesh = ExtResource( 12 )
material/0 = ExtResource( 10 )
material/1 = ExtResource( 4 )

[node name="OffTheRampEngine" type="MeshInstance" parent="."]
transform = Transform( 1, 0, 0, 0, 1, 0, 0, 0, 1, 0, -1.76147, 0 )
mesh = ExtResource( 13 )
material/0 = ExtResource( 14 )
material/1 = ExtResource( 6 )
material/2 = ExtResource( 4 )
material/3 = ExtResource( 14 )
material/4 = ExtResource( 10 )
material/5 = ExtResource( 15 )
material/6 = ExtResource( 4 )
material/7 = ExtResource( 4 )

[node name="AudioEngineIdle" type="AudioStreamPlayer3D" parent="."]
transform = Transform( 1, 0, 0, 0, 1, 0, 0, 0, 1, 1.51302, 0.341354, 0 )
stream = ExtResource( 16 )
unit_size = 3.0
max_db = 6.0
autoplay = true
doppler_tracking = 2

[node name="AudioEngineMax" type="AudioStreamPlayer3D" parent="."]
transform = Transform( 1, 0, 0, 0, 1, 0, 0, 0, 1, 1.51302, 0.341354, 0 )
stream = ExtResource( 17 )
unit_db = -24.0
unit_size = 3.0
max_db = 6.0
pitch_scale = 0.45
autoplay = true
doppler_tracking = 2

[node name="OffTheRampAxle" type="MeshInstance" parent="."]
transform = Transform( 1, 0, 0, 0, 1, 0, 0, 0, 1, 0, -1.80655, 0 )
mesh = ExtResource( 18 )
material/0 = ExtResource( 4 )
material/1 = ExtResource( 4 )

[node name="OffTheRampSteeringWheel" type="MeshInstance" parent="."]
transform = Transform( 1, 0, 0, 0, 1, 0, 0, 0, 1, 0, -1.74837, 0 )
mesh = ExtResource( 19 )
material/0 = ExtResource( 4 )
material/1 = ExtResource( 6 )

[node name="CollisionShape" type="CollisionShape" parent="."]
transform = Transform( 1, 0, 0, 0, 1, 0, 0, 0, 1, 0, -1.76147, 0 )
shape = SubResource( 3 )
