# Blender v2.80 (sub 74) OBJ File: 'OffTheRampCar.blend'
# www.blender.org
mtllib OffTheRampAxle.mtl
o Circle_Circle.002
v 1.770780 1.870426 -0.113355
v 1.769381 1.927086 -0.098168
v 1.768356 1.968564 -0.056677
v 1.767981 1.983746 0.000000
v 1.768356 1.968564 0.056678
v 1.769381 1.927086 0.098168
v 1.770780 1.870426 0.113355
v 1.772180 1.813766 0.098168
v 1.773205 1.772288 0.056678
v 1.773580 1.757106 0.000000
v 1.773205 1.772287 -0.056677
v 1.772180 1.813765 -0.098168
v -3.684470 1.735656 -0.113355
v -3.685869 1.792317 -0.098168
v -3.686894 1.833795 -0.056677
v -3.687269 1.848977 0.000000
v -3.686894 1.833795 0.056678
v -3.685869 1.792317 0.098168
v -3.684470 1.735656 0.113355
v -3.683070 1.678996 0.098168
v -3.682045 1.637518 0.056678
v -3.681670 1.622336 0.000000
v -3.682045 1.637518 -0.056677
v -3.683070 1.678996 -0.098168
vt 0.000000 0.000000
vt 0.000000 0.000000
vt 0.000000 0.000000
vt 0.000000 0.000000
vt 0.000000 0.000000
vt 0.000000 0.000000
vt 0.000000 0.000000
vt 0.000000 0.000000
vt 0.000000 0.000000
vt 0.000000 0.000000
vt 0.000000 0.000000
vt 0.000000 0.000000
vt 0.000000 0.000000
vt 0.000000 0.000000
vt 0.000000 0.000000
vt 0.000000 0.000000
vt 0.000000 0.000000
vt 0.000000 0.000000
vt 0.000000 0.000000
vt 0.000000 0.000000
vt 0.000000 0.000000
vt 0.000000 0.000000
vt 0.000000 0.000000
vt 0.000000 0.000000
vn -0.0123 0.4998 0.8660
vn -0.0214 0.8657 0.5000
vn 0.0000 0.0000 -1.0000
vn 0.0123 -0.4998 -0.8660
vn -0.0214 0.8657 -0.5000
vn -0.0123 0.4998 -0.8660
vn 0.0247 -0.9997 0.0000
vn 0.0214 -0.8657 0.5000
vn 0.0000 0.0000 1.0000
vn -0.0247 0.9997 0.0000
vn 0.0214 -0.8657 -0.5000
vn 0.0123 -0.4998 0.8660
usemtl Material.001
s 1
f 6/1/1 5/2/2 17/3/2 18/4/1
f 1/5/3 12/6/4 24/7/4 13/8/3
f 3/9/5 2/10/6 14/11/6 15/12/5
f 10/13/7 9/14/8 21/15/8 22/16/7
f 7/17/9 6/1/1 18/4/1 19/18/9
f 4/19/10 3/9/5 15/12/5 16/20/10
f 11/21/11 10/13/7 22/16/7 23/22/11
f 8/23/12 7/17/9 19/18/9 20/24/12
f 5/2/2 4/19/10 16/20/10 17/3/2
f 12/6/4 11/21/11 23/22/11 24/7/4
f 2/10/6 1/5/3 13/8/3 14/11/6
f 9/14/8 8/23/12 20/24/12 21/15/8
o Cylinder
v -4.000454 2.148191 -0.190000
v -3.883985 2.132858 -0.190000
v -3.775454 2.087902 -0.190000
v -3.682256 2.016389 -0.190000
v -3.610742 1.923191 -0.190000
v -3.565787 1.814659 -0.190000
v -3.550454 1.698191 -0.190000
v -3.565787 1.581722 -0.190000
v -3.610742 1.473191 -0.190000
v -3.682256 1.379993 -0.190000
v -3.775454 1.308480 -0.190000
v -3.883985 1.263524 -0.190000
v -4.000454 1.248191 -0.190000
v -4.116922 1.263524 -0.190000
v -4.225454 1.308479 -0.190000
v -4.318652 1.379993 -0.190000
v -4.390165 1.473191 -0.190000
v -4.435121 1.581722 -0.190000
v -4.450454 1.698191 -0.190000
v -4.435121 1.814659 -0.190000
v -4.390166 1.923191 -0.190000
v -4.318653 2.016389 -0.190000
v -4.225454 2.087902 -0.190000
v -4.116923 2.132857 -0.190000
v -4.000454 1.859411 -0.314333
v -3.958727 1.853918 -0.314333
v -3.919844 1.837812 -0.314333
v -3.886454 1.812191 -0.314333
v -3.860833 1.778801 -0.314333
v -3.844727 1.739918 -0.314333
v -3.839234 1.698191 -0.314333
v -3.844727 1.656464 -0.314333
v -3.860833 1.617581 -0.314333
v -3.886454 1.584191 -0.314333
v -3.919844 1.558570 -0.314333
v -3.958727 1.542464 -0.314333
v -4.000454 1.536971 -0.314333
v -4.042181 1.542464 -0.314333
v -4.081064 1.558570 -0.314333
v -4.114454 1.584191 -0.314333
v -4.140075 1.617581 -0.314333
v -4.156181 1.656464 -0.314333
v -4.161674 1.698191 -0.314333
v -4.156181 1.739918 -0.314333
v -4.140075 1.778801 -0.314333
v -4.114454 1.812191 -0.314333
v -4.081064 1.837812 -0.314333
v -4.042181 1.853918 -0.314333
v -4.000454 1.859411 -3.368213
v -3.958727 1.853918 -3.368213
v -3.919844 1.837812 -3.368213
v -3.886454 1.812191 -3.368213
v -3.860833 1.778801 -3.368213
v -3.844727 1.739918 -3.368213
v -3.839234 1.698191 -3.368213
v -3.844727 1.656464 -3.368213
v -3.860833 1.617581 -3.368213
v -3.886454 1.584191 -3.368213
v -3.919844 1.558570 -3.368213
v -3.958727 1.542464 -3.368213
v -4.000454 1.536971 -3.368213
v -4.042181 1.542464 -3.368213
v -4.081064 1.558570 -3.368213
v -4.114454 1.584191 -3.368213
v -4.140075 1.617581 -3.368213
v -4.156181 1.656464 -3.368213
v -4.161674 1.698191 -3.368213
v -4.156181 1.739918 -3.368213
v -4.140075 1.778801 -3.368213
v -4.114454 1.812191 -3.368213
v -4.081064 1.837812 -3.368213
v -4.042181 1.853918 -3.368213
v -4.000454 2.148191 0.190000
v -4.000454 2.148191 0.000000
v -3.883985 2.132858 0.190000
v -3.883985 2.132858 0.000000
v -3.775454 2.087902 0.190000
v -3.775454 2.087902 0.000000
v -3.682256 2.016389 0.190000
v -3.682256 2.016389 0.000000
v -3.610742 1.923191 0.190000
v -3.610742 1.923191 0.000000
v -3.565787 1.814659 0.190000
v -3.565787 1.814659 0.000000
v -3.550454 1.698191 0.190000
v -3.550454 1.698191 0.000000
v -3.565787 1.581722 0.190000
v -3.565787 1.581722 0.000000
v -3.610742 1.473191 0.190000
v -3.610742 1.473191 0.000000
v -3.682256 1.379993 0.190000
v -3.682256 1.379993 0.000000
v -3.775454 1.308480 0.190000
v -3.775454 1.308480 0.000000
v -3.883985 1.263524 0.190000
v -3.883985 1.263524 0.000000
v -4.000454 1.248191 0.190000
v -4.000454 1.248191 0.000000
v -4.116922 1.263524 0.190000
v -4.116922 1.263524 0.000000
v -4.225454 1.308479 0.190000
v -4.225454 1.308479 0.000000
v -4.318652 1.379993 0.190000
v -4.318652 1.379993 0.000000
v -4.390165 1.473191 0.190000
v -4.390165 1.473191 0.000000
v -4.435121 1.581722 0.190000
v -4.435121 1.581722 0.000000
v -4.450454 1.698191 0.190000
v -4.450454 1.698191 0.000000
v -4.435121 1.814659 0.190000
v -4.435121 1.814659 0.000000
v -4.390166 1.923191 0.190000
v -4.390166 1.923191 0.000000
v -4.318653 2.016389 0.190000
v -4.318653 2.016389 0.000000
v -4.225454 2.087902 0.190000
v -4.225454 2.087902 0.000000
v -4.116923 2.132857 0.190000
v -4.116923 2.132857 0.000000
v -4.000454 1.859411 0.314333
v -3.958727 1.853918 0.314333
v -3.919844 1.837812 0.314333
v -3.886454 1.812191 0.314333
v -3.860833 1.778801 0.314333
v -3.844727 1.739918 0.314333
v -3.839234 1.698191 0.314333
v -3.844727 1.656464 0.314333
v -3.860833 1.617581 0.314333
v -3.886454 1.584191 0.314333
v -3.919844 1.558570 0.314333
v -3.958727 1.542464 0.314333
v -4.000454 1.536971 0.314333
v -4.042181 1.542464 0.314333
v -4.081064 1.558570 0.314333
v -4.114454 1.584191 0.314333
v -4.140075 1.617581 0.314333
v -4.156181 1.656464 0.314333
v -4.161674 1.698191 0.314333
v -4.156181 1.739918 0.314333
v -4.140075 1.778801 0.314333
v -4.114454 1.812191 0.314333
v -4.081064 1.837812 0.314333
v -4.042181 1.853918 0.314333
v -4.000454 1.859411 3.368213
v -3.958727 1.853918 3.368213
v -3.919844 1.837812 3.368213
v -3.886454 1.812191 3.368213
v -3.860833 1.778801 3.368213
v -3.844727 1.739918 3.368213
v -3.839234 1.698191 3.368213
v -3.844727 1.656464 3.368213
v -3.860833 1.617581 3.368213
v -3.886454 1.584191 3.368213
v -3.919844 1.558570 3.368213
v -3.958727 1.542464 3.368213
v -4.000454 1.536971 3.368213
v -4.042181 1.542464 3.368213
v -4.081064 1.558570 3.368213
v -4.114454 1.584191 3.368213
v -4.140075 1.617581 3.368213
v -4.156181 1.656464 3.368213
v -4.161674 1.698191 3.368213
v -4.156181 1.739918 3.368213
v -4.140075 1.778801 3.368213
v -4.114454 1.812191 3.368213
v -4.081064 1.837811 3.368213
v -4.042181 1.853917 3.368213
v -4.000454 2.148191 -0.190000
v -3.883985 2.132858 -0.190000
v -3.775454 2.087902 -0.190000
v -3.682256 2.016389 -0.190000
v -3.610742 1.923191 -0.190000
v -3.565787 1.814659 -0.190000
v -3.550454 1.698191 -0.190000
v -3.565787 1.581722 -0.190000
v -3.610742 1.473191 -0.190000
v -3.682256 1.379993 -0.190000
v -3.775454 1.308480 -0.190000
v -3.883985 1.263524 -0.190000
v -4.000454 1.248191 -0.190000
v -4.116922 1.263524 -0.190000
v -4.225454 1.308479 -0.190000
v -4.318652 1.379993 -0.190000
v -4.390165 1.473191 -0.190000
v -4.435121 1.581722 -0.190000
v -4.450454 1.698191 -0.190000
v -4.435121 1.814659 -0.190000
v -4.390166 1.923191 -0.190000
v -4.318653 2.016389 -0.190000
v -4.225454 2.087902 -0.190000
v -4.116923 2.132857 -0.190000
v -4.000454 1.859411 -0.314333
v -3.958727 1.853918 -0.314333
v -3.919844 1.837812 -0.314333
v -3.886454 1.812191 -0.314333
v -3.860833 1.778801 -0.314333
v -3.844727 1.739918 -0.314333
v -3.839234 1.698191 -0.314333
v -3.844727 1.656464 -0.314333
v -3.860833 1.617581 -0.314333
v -3.886454 1.584191 -0.314333
v -3.919844 1.558570 -0.314333
v -3.958727 1.542464 -0.314333
v -4.000454 1.536971 -0.314333
v -4.042181 1.542464 -0.314333
v -4.081064 1.558570 -0.314333
v -4.114454 1.584191 -0.314333
v -4.140075 1.617581 -0.314333
v -4.156181 1.656464 -0.314333
v -4.161674 1.698191 -0.314333
v -4.156181 1.739918 -0.314333
v -4.140075 1.778801 -0.314333
v -4.114454 1.812191 -0.314333
v -4.081064 1.837812 -0.314333
v -4.042181 1.853918 -0.314333
v -4.000454 1.859411 -3.368213
v -3.958727 1.853918 -3.368213
v -3.919844 1.837812 -3.368213
v -3.886454 1.812191 -3.368213
v -3.860833 1.778801 -3.368213
v -3.844727 1.739918 -3.368213
v -3.839234 1.698191 -3.368213
v -3.844727 1.656464 -3.368213
v -3.860833 1.617581 -3.368213
v -3.886454 1.584191 -3.368213
v -3.919844 1.558570 -3.368213
v -3.958727 1.542464 -3.368213
v -4.000454 1.536971 -3.368213
v -4.042181 1.542464 -3.368213
v -4.081064 1.558570 -3.368213
v -4.114454 1.584191 -3.368213
v -4.140075 1.617581 -3.368213
v -4.156181 1.656464 -3.368213
v -4.161674 1.698191 -3.368213
v -4.156181 1.739918 -3.368213
v -4.140075 1.778801 -3.368213
v -4.114454 1.812191 -3.368213
v -4.081064 1.837812 -3.368213
v -4.042181 1.853918 -3.368213
v -4.000454 2.148191 0.190000
v -3.883985 2.132858 0.190000
v -3.775454 2.087902 0.190000
v -3.682256 2.016389 0.190000
v -3.610742 1.923191 0.190000
v -3.565787 1.814659 0.190000
v -3.550454 1.698191 0.190000
v -3.565787 1.581722 0.190000
v -3.610742 1.473191 0.190000
v -3.682256 1.379993 0.190000
v -3.775454 1.308480 0.190000
v -3.883985 1.263524 0.190000
v -4.000454 1.248191 0.190000
v -4.116922 1.263524 0.190000
v -4.225454 1.308479 0.190000
v -4.318652 1.379993 0.190000
v -4.390165 1.473191 0.190000
v -4.435121 1.581722 0.190000
v -4.450454 1.698191 0.190000
v -4.435121 1.814659 0.190000
v -4.390166 1.923191 0.190000
v -4.318653 2.016389 0.190000
v -4.225454 2.087902 0.190000
v -4.116923 2.132857 0.190000
v -4.000454 1.859411 0.314333
v -3.958727 1.853918 0.314333
v -3.919844 1.837812 0.314333
v -3.886454 1.812191 0.314333
v -3.860833 1.778801 0.314333
v -3.844727 1.739918 0.314333
v -3.839234 1.698191 0.314333
v -3.844727 1.656464 0.314333
v -3.860833 1.617581 0.314333
v -3.886454 1.584191 0.314333
v -3.919844 1.558570 0.314333
v -3.958727 1.542464 0.314333
v -4.000454 1.536971 0.314333
v -4.042181 1.542464 0.314333
v -4.081064 1.558570 0.314333
v -4.114454 1.584191 0.314333
v -4.140075 1.617581 0.314333
v -4.156181 1.656464 0.314333
v -4.161674 1.698191 0.314333
v -4.156181 1.739918 0.314333
v -4.140075 1.778801 0.314333
v -4.114454 1.812191 0.314333
v -4.081064 1.837812 0.314333
v -4.042181 1.853918 0.314333
v -4.000454 1.859411 3.368213
v -3.958727 1.853918 3.368213
v -3.919844 1.837812 3.368213
v -3.886454 1.812191 3.368213
v -3.860833 1.778801 3.368213
v -3.844727 1.739918 3.368213
v -3.839234 1.698191 3.368213
v -3.844727 1.656464 3.368213
v -3.860833 1.617581 3.368213
v -3.886454 1.584191 3.368213
v -3.919844 1.558570 3.368213
v -3.958727 1.542464 3.368213
v -4.000454 1.536971 3.368213
v -4.042181 1.542464 3.368213
v -4.081064 1.558570 3.368213
v -4.114454 1.584191 3.368213
v -4.140075 1.617581 3.368213
v -4.156181 1.656464 3.368213
v -4.161674 1.698191 3.368213
v -4.156181 1.739918 3.368213
v -4.140075 1.778801 3.368213
v -4.114454 1.812191 3.368213
v -4.081064 1.837811 3.368213
v -4.042181 1.853917 3.368213
vt 1.000000 0.500000
vt 1.000000 1.000000
vt 0.958333 1.000000
vt 0.958333 0.500000
vt 0.916667 1.000000
vt 0.916667 0.500000
vt 0.875000 1.000000
vt 0.875000 0.500000
vt 0.833333 1.000000
vt 0.833333 0.500000
vt 0.791667 1.000000
vt 0.791667 0.500000
vt 0.750000 1.000000
vt 0.750000 0.500000
vt 0.708333 1.000000
vt 0.708333 0.500000
vt 0.666667 1.000000
vt 0.666667 0.500000
vt 0.625000 1.000000
vt 0.625000 0.500000
vt 0.583333 1.000000
vt 0.583333 0.500000
vt 0.541666 1.000000
vt 0.541666 0.500000
vt 0.500000 1.000000
vt 0.500000 0.500000
vt 0.458333 1.000000
vt 0.458333 0.500000
vt 0.416666 1.000000
vt 0.416666 0.500000
vt 0.375000 1.000000
vt 0.375000 0.500000
vt 0.333333 1.000000
vt 0.333333 0.500000
vt 0.291667 1.000000
vt 0.291667 0.500000
vt 0.250000 1.000000
vt 0.250000 0.500000
vt 0.208333 1.000000
vt 0.208333 0.500000
vt 0.166666 1.000000
vt 0.166666 0.500000
vt 0.125000 1.000000
vt 0.125000 0.500000
vt 0.083333 1.000000
vt 0.083333 0.500000
vt 0.041666 1.000000
vt 0.041666 0.500000
vt -0.000000 1.000000
vt -0.000000 0.500000
vt 0.875000 0.500000
vt 0.833333 0.500000
vt 0.833333 0.500000
vt 0.875000 0.500000
vt 0.500000 0.500000
vt 0.458333 0.500000
vt 0.458333 0.500000
vt 0.500000 0.500000
vt 0.666667 0.500000
vt 0.625000 0.500000
vt 0.625000 0.500000
vt 0.666667 0.500000
vt 0.458333 0.500000
vt 0.416666 0.500000
vt 0.416666 0.500000
vt 0.458333 0.500000
vt 0.250000 0.500000
vt 0.208333 0.500000
vt 0.208333 0.500000
vt 0.250000 0.500000
vt 0.041666 0.500000
vt -0.000000 0.500000
vt -0.000000 0.500000
vt 0.041666 0.500000
vt 0.958333 0.500000
vt 0.916667 0.500000
vt 0.916667 0.500000
vt 0.958333 0.500000
vt 0.750000 0.500000
vt 0.708333 0.500000
vt 0.708333 0.500000
vt 0.750000 0.500000
vt 0.541666 0.500000
vt 0.500000 0.500000
vt 0.500000 0.500000
vt 0.541666 0.500000
vt 0.333333 0.500000
vt 0.291667 0.500000
vt 0.291667 0.500000
vt 0.333333 0.500000
vt 0.125000 0.500000
vt 0.083333 0.500000
vt 0.083333 0.500000
vt 0.125000 0.500000
vt 0.791667 0.500000
vt 0.791667 0.500000
vt 0.583333 0.500000
vt 0.583333 0.500000
vt 0.375000 0.500000
vt 0.375000 0.500000
vt 0.166666 0.500000
vt 0.166666 0.500000
vt 1.000000 0.500000
vt 1.000000 0.500000
vt 0.750000 0.490000
vt 0.812117 0.481822
vt 0.870000 0.457846
vt 0.919706 0.419706
vt 0.957846 0.370000
vt 0.981822 0.312117
vt 0.990000 0.250000
vt 0.981822 0.187883
vt 0.957846 0.130000
vt 0.919706 0.080294
vt 0.870000 0.042154
vt 0.812117 0.018178
vt 0.750000 0.010000
vt 0.687884 0.018178
vt 0.630000 0.042154
vt 0.580294 0.080294
vt 0.542154 0.130000
vt 0.518178 0.187883
vt 0.510000 0.250000
vt 0.518178 0.312116
vt 0.542154 0.370000
vt 0.580294 0.419706
vt 0.630000 0.457846
vt 0.687883 0.481822
vt 0.791667 0.500000
vt 0.750000 0.500000
vt 0.750000 0.500000
vt 0.791667 0.500000
vt 0.166666 0.500000
vt 0.125000 0.500000
vt 0.125000 0.500000
vt 0.166666 0.500000
vt 0.416666 0.500000
vt 0.416666 0.500000
vt 0.708333 0.500000
vt 0.708333 0.500000
vt 0.083333 0.500000
vt 0.083333 0.500000
vt 0.375000 0.500000
vt 0.375000 0.500000
vt 0.666667 0.500000
vt 0.666667 0.500000
vt 0.041666 0.500000
vt 0.041666 0.500000
vt 1.000000 0.500000
vt 0.958333 0.500000
vt 0.958333 0.500000
vt 1.000000 0.500000
vt 0.333333 0.500000
vt 0.333333 0.500000
vt 0.625000 0.500000
vt 0.625000 0.500000
vt -0.000000 0.500000
vt -0.000000 0.500000
vt 0.916667 0.500000
vt 0.916667 0.500000
vt 0.291667 0.500000
vt 0.291667 0.500000
vt 0.583333 0.500000
vt 0.583333 0.500000
vt 0.875000 0.500000
vt 0.875000 0.500000
vt 0.250000 0.500000
vt 0.250000 0.500000
vt 0.541666 0.500000
vt 0.541666 0.500000
vt 0.833333 0.500000
vt 0.833333 0.500000
vt 0.208333 0.500000
vt 0.208333 0.500000
vt 1.000000 0.500000
vt 0.958333 0.500000
vt 0.916667 0.500000
vt 0.875000 0.500000
vt 0.833333 0.500000
vt 0.791667 0.500000
vt 0.750000 0.500000
vt 0.708333 0.500000
vt 0.666667 0.500000
vt 0.625000 0.500000
vt 0.583333 0.500000
vt 0.541666 0.500000
vt 0.500000 0.500000
vt 0.458333 0.500000
vt 0.416666 0.500000
vt 0.375000 0.500000
vt 0.333333 0.500000
vt 0.291667 0.500000
vt 0.250000 0.500000
vt 0.208333 0.500000
vt 0.166666 0.500000
vt 0.125000 0.500000
vt 0.083333 0.500000
vt 0.041666 0.500000
vt -0.000000 0.500000
vt 0.875000 0.500000
vt 0.875000 0.500000
vt 0.833333 0.500000
vt 0.833333 0.500000
vt 0.500000 0.500000
vt 0.500000 0.500000
vt 0.458333 0.500000
vt 0.458333 0.500000
vt 0.666667 0.500000
vt 0.666667 0.500000
vt 0.625000 0.500000
vt 0.625000 0.500000
vt 0.458333 0.500000
vt 0.458333 0.500000
vt 0.416666 0.500000
vt 0.416666 0.500000
vt 0.250000 0.500000
vt 0.250000 0.500000
vt 0.208333 0.500000
vt 0.208333 0.500000
vt 0.041666 0.500000
vt 0.041666 0.500000
vt -0.000000 0.500000
vt -0.000000 0.500000
vt 0.958333 0.500000
vt 0.958333 0.500000
vt 0.916667 0.500000
vt 0.916667 0.500000
vt 0.750000 0.500000
vt 0.750000 0.500000
vt 0.708333 0.500000
vt 0.708333 0.500000
vt 0.541666 0.500000
vt 0.541666 0.500000
vt 0.500000 0.500000
vt 0.500000 0.500000
vt 0.333333 0.500000
vt 0.333333 0.500000
vt 0.291667 0.500000
vt 0.291667 0.500000
vt 0.125000 0.500000
vt 0.125000 0.500000
vt 0.083333 0.500000
vt 0.083333 0.500000
vt 0.791667 0.500000
vt 0.791667 0.500000
vt 0.583333 0.500000
vt 0.583333 0.500000
vt 0.375000 0.500000
vt 0.375000 0.500000
vt 0.166666 0.500000
vt 0.166666 0.500000
vt 1.000000 0.500000
vt 1.000000 0.500000
vt 0.750000 0.490000
vt 0.687883 0.481822
vt 0.630000 0.457846
vt 0.580294 0.419706
vt 0.542154 0.370000
vt 0.518178 0.312116
vt 0.510000 0.250000
vt 0.518178 0.187883
vt 0.542154 0.130000
vt 0.580294 0.080294
vt 0.630000 0.042154
vt 0.687884 0.018178
vt 0.750000 0.010000
vt 0.812117 0.018178
vt 0.870000 0.042154
vt 0.919706 0.080294
vt 0.957846 0.130000
vt 0.981822 0.187883
vt 0.990000 0.250000
vt 0.981822 0.312117
vt 0.957846 0.370000
vt 0.919706 0.419706
vt 0.870000 0.457846
vt 0.812117 0.481822
vt 0.791667 0.500000
vt 0.791667 0.500000
vt 0.750000 0.500000
vt 0.750000 0.500000
vt 0.166666 0.500000
vt 0.166666 0.500000
vt 0.125000 0.500000
vt 0.125000 0.500000
vt 0.416666 0.500000
vt 0.416666 0.500000
vt 0.708333 0.500000
vt 0.708333 0.500000
vt 0.083333 0.500000
vt 0.083333 0.500000
vt 0.375000 0.500000
vt 0.375000 0.500000
vt 0.666667 0.500000
vt 0.666667 0.500000
vt 0.041666 0.500000
vt 0.041666 0.500000
vt 1.000000 0.500000
vt 1.000000 0.500000
vt 0.958333 0.500000
vt 0.958333 0.500000
vt 0.333333 0.500000
vt 0.333333 0.500000
vt 0.625000 0.500000
vt 0.625000 0.500000
vt -0.000000 0.500000
vt -0.000000 0.500000
vt 0.916667 0.500000
vt 0.916667 0.500000
vt 0.291667 0.500000
vt 0.291667 0.500000
vt 0.583333 0.500000
vt 0.583333 0.500000
vt 0.875000 0.500000
vt 0.875000 0.500000
vt 0.250000 0.500000
vt 0.250000 0.500000
vt 0.541666 0.500000
vt 0.541666 0.500000
vt 0.833333 0.500000
vt 0.833333 0.500000
vt 0.208333 0.500000
vt 0.208333 0.500000
vn 0.0000 1.0000 0.0000
vn 0.2588 0.9659 0.0000
vn 0.5000 0.8660 0.0000
vn 0.7071 0.7071 0.0000
vn 0.8660 0.5000 0.0000
vn 0.9659 0.2588 0.0000
vn 1.0000 0.0000 0.0000
vn 0.9659 -0.2588 0.0000
vn 0.8660 -0.5000 0.0000
vn 0.7071 -0.7071 0.0000
vn 0.5000 -0.8660 0.0000
vn 0.2588 -0.9659 0.0000
vn 0.0000 -1.0000 0.0000
vn -0.2588 -0.9659 0.0000
vn -0.5000 -0.8660 0.0000
vn -0.7071 -0.7071 0.0000
vn -0.8660 -0.5000 0.0000
vn -0.9659 -0.2588 0.0000
vn -1.0000 0.0000 0.0000
vn -0.9659 0.2588 0.0000
vn -0.8660 0.5000 0.0000
vn -0.7071 0.7071 0.0000
vn -0.5000 0.8660 0.0000
vn -0.2588 0.9659 0.0000
vn 0.2796 0.2796 -0.9185
vn 0.3424 0.1977 -0.9185
vn 0.3424 -0.1977 -0.9185
vn 0.2796 -0.2796 -0.9185
vn -0.1023 -0.3820 -0.9185
vn -0.1977 -0.3424 -0.9185
vn -0.3954 0.0000 -0.9185
vn -0.3820 0.1023 -0.9185
vn -0.1023 0.3820 -0.9185
vn 0.0000 0.3954 -0.9185
vn 0.1023 0.3820 -0.9185
vn 0.1977 0.3424 -0.9185
vn 0.3954 0.0000 -0.9185
vn 0.3820 -0.1023 -0.9185
vn 0.1023 -0.3820 -0.9185
vn 0.0000 -0.3954 -0.9185
vn -0.3424 -0.1977 -0.9185
vn -0.3820 -0.1023 -0.9185
vn -0.2796 0.2796 -0.9185
vn -0.1977 0.3424 -0.9185
vn 0.3820 0.1023 -0.9185
vn 0.1977 -0.3424 -0.9185
vn -0.2796 -0.2796 -0.9185
vn -0.3424 0.1977 -0.9185
vn 0.0000 0.0000 -1.0000
vn 0.2796 0.2796 0.9185
vn 0.3424 0.1977 0.9185
vn 0.3424 -0.1977 0.9185
vn 0.2796 -0.2796 0.9185
vn -0.1023 -0.3820 0.9185
vn -0.1977 -0.3424 0.9185
vn -0.3954 0.0000 0.9185
vn -0.3820 0.1023 0.9185
vn -0.1023 0.3820 0.9185
vn 0.0000 0.3954 0.9185
vn 0.1023 0.3820 0.9185
vn 0.1977 0.3424 0.9185
vn 0.3954 0.0000 0.9185
vn 0.3820 -0.1023 0.9185
vn 0.1023 -0.3820 0.9185
vn 0.0000 -0.3954 0.9185
vn -0.3424 -0.1977 0.9185
vn -0.3820 -0.1023 0.9185
vn -0.2796 0.2796 0.9185
vn -0.1977 0.3424 0.9185
vn 0.3820 0.1023 0.9185
vn 0.1977 -0.3424 0.9185
vn -0.2796 -0.2796 0.9185
vn -0.3424 0.1977 0.9185
vn 0.0000 0.0000 1.0000
usemtl Material.001
s 1
f 193/25/13 98/26/13 100/27/14 194/28/14
f 194/28/14 100/27/14 102/29/15 195/30/15
f 195/30/15 102/29/15 104/31/16 196/32/16
f 196/32/16 104/31/16 106/33/17 197/34/17
f 197/34/17 106/33/17 108/35/18 198/36/18
f 198/36/18 108/35/18 110/37/19 199/38/19
f 199/38/19 110/37/19 112/39/20 200/40/20
f 200/40/20 112/39/20 114/41/21 201/42/21
f 201/42/21 114/41/21 116/43/22 202/44/22
f 202/44/22 116/43/22 118/45/23 203/46/23
f 203/46/23 118/45/23 120/47/24 204/48/24
f 204/48/24 120/47/24 122/49/25 205/50/25
f 205/50/25 122/49/25 124/51/26 206/52/26
f 206/52/26 124/51/26 126/53/27 207/54/27
f 207/54/27 126/53/27 128/55/28 208/56/28
f 208/56/28 128/55/28 130/57/29 209/58/29
f 209/58/29 130/57/29 132/59/30 210/60/30
f 210/60/30 132/59/30 134/61/31 211/62/31
f 211/62/31 134/61/31 136/63/32 212/64/32
f 212/64/32 136/63/32 138/65/33 213/66/33
f 213/66/33 138/65/33 140/67/34 214/68/34
f 214/68/34 140/67/34 142/69/35 215/70/35
f 215/70/35 142/69/35 144/71/36 216/72/36
f 216/72/36 144/71/36 98/73/13 193/74/13
f 28/75/37 29/76/38 221/77/38 220/78/37
f 61/79/25 230/80/26 254/81/26 85/82/25
f 33/83/39 34/84/40 226/85/40 225/86/39
f 38/87/41 39/88/42 231/89/42 62/90/41
f 43/91/43 44/92/44 236/93/44 235/94/43
f 48/95/45 25/96/46 217/97/46 240/98/45
f 26/99/47 27/100/48 219/101/48 218/102/47
f 31/103/49 32/104/50 224/105/50 223/106/49
f 36/107/51 37/108/52 229/109/52 228/110/51
f 41/111/53 42/112/54 234/113/54 233/114/53
f 46/115/55 47/116/56 239/117/56 238/118/55
f 29/76/38 30/119/57 222/120/57 221/77/38
f 34/84/40 35/121/58 227/122/58 226/85/40
f 39/88/42 40/123/59 232/124/59 231/89/42
f 44/92/44 45/125/60 237/126/60 236/93/44
f 27/100/48 28/75/37 220/78/37 219/101/48
f 32/104/50 33/83/39 225/86/39 224/105/50
f 25/127/46 26/99/47 218/102/47 217/128/46
f 37/108/52 38/87/41 62/90/41 229/109/52
f 42/112/54 43/91/43 235/94/43 234/113/54
f 47/116/56 48/95/45 240/98/45 239/117/56
f 30/119/57 31/103/49 223/106/49 222/120/57
f 35/121/58 36/107/51 228/110/51 227/122/58
f 40/123/59 41/111/53 233/114/53 232/124/59
f 45/125/60 46/115/55 238/118/55 237/126/60
f 241/129/61 242/130/61 243/131/61 244/132/61 245/133/61 246/134/61 247/135/61 248/136/61 249/137/61 250/138/61 251/139/61 252/140/61 253/141/61 86/142/61 255/143/61 256/144/61 257/145/61 258/146/61 259/147/61 260/148/61 261/149/61 262/150/61 263/151/61 264/152/61
f 54/153/18 55/154/19 79/155/19 78/156/18
f 69/157/33 70/158/34 94/159/34 93/160/33
f 230/80/26 63/161/27 87/162/27 254/81/26
f 55/154/19 56/163/20 80/164/20 79/155/19
f 70/158/34 71/165/35 95/166/35 94/159/34
f 63/161/27 64/167/28 88/168/28 87/162/27
f 56/163/20 57/169/21 81/170/21 80/164/20
f 71/165/35 72/171/36 96/172/36 95/166/35
f 49/173/13 50/174/14 74/175/14 73/176/13
f 64/167/28 65/177/29 89/178/29 88/168/28
f 57/169/21 58/179/22 82/180/22 81/170/21
f 72/171/36 49/181/13 73/182/13 96/172/36
f 50/174/14 51/183/15 75/184/15 74/175/14
f 65/177/29 66/185/30 90/186/30 89/178/29
f 58/179/22 59/187/23 83/188/23 82/180/22
f 51/183/15 52/189/16 76/190/16 75/184/15
f 66/185/30 67/191/31 91/192/31 90/186/30
f 59/187/23 60/193/24 84/194/24 83/188/23
f 52/189/16 53/195/17 77/196/17 76/190/16
f 67/191/31 68/197/32 92/198/32 91/192/31
f 60/193/24 61/79/25 85/82/25 84/194/24
f 53/195/17 54/153/18 78/156/18 77/196/17
f 68/197/32 69/157/33 93/160/33 92/198/32
f 265/199/13 266/200/14 100/27/14 98/26/13
f 266/200/14 267/201/15 102/29/15 100/27/14
f 267/201/15 268/202/16 104/31/16 102/29/15
f 268/202/16 269/203/17 106/33/17 104/31/16
f 269/203/17 270/204/18 108/35/18 106/33/17
f 270/204/18 271/205/19 110/37/19 108/35/18
f 271/205/19 272/206/20 112/39/20 110/37/19
f 272/206/20 273/207/21 114/41/21 112/39/20
f 273/207/21 274/208/22 116/43/22 114/41/21
f 274/208/22 275/209/23 118/45/23 116/43/22
f 275/209/23 276/210/24 120/47/24 118/45/23
f 276/210/24 277/211/25 122/49/25 120/47/24
f 277/211/25 278/212/26 124/51/26 122/49/25
f 278/212/26 279/213/27 126/53/27 124/51/26
f 279/213/27 280/214/28 128/55/28 126/53/27
f 280/214/28 281/215/29 130/57/29 128/55/28
f 281/215/29 282/216/30 132/59/30 130/57/29
f 282/216/30 283/217/31 134/61/31 132/59/30
f 283/217/31 284/218/32 136/63/32 134/61/31
f 284/218/32 285/219/33 138/65/33 136/63/32
f 285/219/33 286/220/34 140/67/34 138/65/33
f 286/220/34 287/221/35 142/69/35 140/67/34
f 287/221/35 288/222/36 144/71/36 142/69/35
f 288/222/36 265/223/13 98/73/13 144/71/36
f 103/224/62 292/225/62 293/226/63 105/227/63
f 157/228/25 181/229/25 326/230/26 302/231/26
f 113/232/64 297/233/64 298/234/65 115/235/65
f 123/236/66 158/237/66 303/238/67 125/239/67
f 133/240/68 307/241/68 308/242/69 135/243/69
f 143/244/70 312/245/70 289/246/71 97/247/71
f 99/248/72 290/249/72 291/250/73 101/251/73
f 109/252/74 295/253/74 296/254/75 111/255/75
f 119/256/76 300/257/76 301/258/77 121/259/77
f 129/260/78 305/261/78 306/262/79 131/263/79
f 139/264/80 310/265/80 311/266/81 141/267/81
f 105/227/63 293/226/63 294/268/82 107/269/82
f 115/235/65 298/234/65 299/270/83 117/271/83
f 125/239/67 303/238/67 304/272/84 127/273/84
f 135/243/69 308/242/69 309/274/85 137/275/85
f 101/251/73 291/250/73 292/225/62 103/224/62
f 111/255/75 296/254/75 297/233/64 113/232/64
f 97/276/71 289/277/71 290/249/72 99/248/72
f 121/259/77 301/258/77 158/237/66 123/236/66
f 131/263/79 306/262/79 307/241/68 133/240/68
f 141/267/81 311/266/81 312/245/70 143/244/70
f 107/269/82 294/268/82 295/253/74 109/252/74
f 117/271/83 299/270/83 300/257/76 119/256/76
f 127/273/84 304/272/84 305/261/78 129/260/78
f 137/275/85 309/274/85 310/265/80 139/264/80
f 313/278/86 336/279/86 335/280/86 334/281/86 333/282/86 332/283/86 331/284/86 330/285/86 329/286/86 328/287/86 327/288/86 182/289/86 325/290/86 324/291/86 323/292/86 322/293/86 321/294/86 320/295/86 319/296/86 318/297/86 317/298/86 316/299/86 315/300/86 314/301/86
f 150/302/18 174/303/18 175/304/19 151/305/19
f 165/306/33 189/307/33 190/308/34 166/309/34
f 302/231/26 326/230/26 183/310/27 159/311/27
f 151/305/19 175/304/19 176/312/20 152/313/20
f 166/309/34 190/308/34 191/314/35 167/315/35
f 159/311/27 183/310/27 184/316/28 160/317/28
f 152/313/20 176/312/20 177/318/21 153/319/21
f 167/315/35 191/314/35 192/320/36 168/321/36
f 145/322/13 169/323/13 170/324/14 146/325/14
f 160/317/28 184/316/28 185/326/29 161/327/29
f 153/319/21 177/318/21 178/328/22 154/329/22
f 168/321/36 192/320/36 169/330/13 145/331/13
f 146/325/14 170/324/14 171/332/15 147/333/15
f 161/327/29 185/326/29 186/334/30 162/335/30
f 154/329/22 178/328/22 179/336/23 155/337/23
f 147/333/15 171/332/15 172/338/16 148/339/16
f 162/335/30 186/334/30 187/340/31 163/341/31
f 155/337/23 179/336/23 180/342/24 156/343/24
f 148/339/16 172/338/16 173/344/17 149/345/17
f 163/341/31 187/340/31 188/346/32 164/347/32
f 156/343/24 180/342/24 181/229/25 157/228/25
f 149/345/17 173/344/17 174/303/18 150/302/18
f 164/347/32 188/346/32 189/307/33 165/306/33
