# Blender v2.80 (sub 74) OBJ File: 'Ramp1.blend'
# www.blender.org
mtllib OffTheRampRamp1.mtl
o Cube
v 1.152185 2.000000 -4.570069
v 1.152185 0.000000 -4.570069
v 1.152185 2.000000 4.570069
v 1.152185 0.000000 4.570069
v -7.152185 2.000000 -4.570069
v -7.152185 0.000000 -4.570069
v -7.152185 2.000000 4.570069
v -7.152185 0.000000 4.570069
v -14.152185 0.000000 -4.570069
v -14.152185 0.000000 4.570069
v -14.152185 2.000000 4.570069
v -14.152185 2.000000 -4.570069
v -19.152185 0.000000 -4.570069
v -19.152185 0.000000 4.570069
v -19.152185 3.000000 4.570069
v -19.152185 3.000000 -4.570069
v -27.152185 0.000000 -4.570069
v -27.152185 0.000000 4.570069
v -27.152185 2.000000 4.570069
v -27.152185 2.000000 -4.570069
v -36.815102 0.000000 -4.256358
v -34.666172 0.000000 4.627571
v -34.666172 2.194601 4.627571
v -36.815102 3.268587 -4.256358
v -43.976162 0.000000 -2.304613
v -40.041222 0.000000 5.945132
v -40.041222 2.923148 5.945132
v -43.976162 4.627120 -2.304613
v -49.272484 0.000000 1.525639
v -44.194485 0.000000 9.125375
v -44.194485 3.000000 9.125375
v -49.272484 5.000000 2.525639
v -54.245262 0.000000 8.794097
v -46.003624 0.000000 12.745983
v -46.003624 3.000000 12.745983
v -54.245262 5.000000 8.794097
v -55.901894 0.000000 16.620335
v -46.797264 0.000000 17.425123
v -46.797264 3.000000 17.425123
v -55.901894 3.706940 16.620335
v -55.940861 0.000000 22.054026
v -46.800900 0.000000 22.109901
v -46.800900 3.000000 22.109901
v -55.940861 3.000000 22.054026
v -55.981075 0.000000 28.630344
v -46.841114 0.000000 28.686222
v -46.841114 3.000000 28.686222
v -55.981075 3.000000 28.630344
v -19.152185 0.441645 4.570069
v -19.152185 0.441645 -4.570069
v -27.152185 0.441645 4.570069
v -27.152185 0.441645 -4.570069
v -56.054436 0.000000 40.630119
v -46.914474 0.000000 40.685997
v -46.914474 4.000000 40.685997
v -56.054436 4.000000 40.630119
v -56.133911 0.000000 53.629875
v -46.993950 0.000000 53.685753
v -46.993950 8.000000 53.685753
v -56.133911 8.000000 53.629875
v -56.207272 0.000000 65.629654
v -47.067310 0.000000 65.685532
v -47.067310 13.000000 65.685532
v -56.207272 13.000000 65.629654
v -56.317314 0.000000 98.360863
v -47.177353 0.000000 98.416740
v -47.177353 13.000000 98.416740
v -56.317314 13.000000 98.360863
v -47.067310 4.000000 65.685532
v -56.207272 4.000000 65.629654
v -47.177353 4.000000 98.416740
v -56.317314 4.000000 98.360863
v -56.402901 0.000000 112.360603
v -47.262939 0.000000 112.416481
v -47.262939 7.000000 112.416481
v -56.402901 7.000000 112.360603
v -47.299622 0.000000 118.416367
v -47.299622 6.000000 118.416367
v -56.439583 0.000000 118.360489
v -56.439583 6.000000 118.360489
v -47.336304 0.000000 124.416252
v -47.336304 6.000000 124.416252
v -56.476265 0.000000 124.360374
v -56.476265 6.000000 124.360374
v -47.379097 0.000000 150.275742
v -47.379097 6.000000 150.275742
v -56.519058 0.000000 150.219864
v -56.519058 6.000000 150.219864
v 22.152185 0.000000 -4.570069
v 22.152185 0.000000 -4.570069
v 22.152185 0.000000 4.570069
v 22.152185 0.000000 4.570069
v -31.983643 2.500000 -4.413214
v -30.909180 2.000000 4.598820
v -40.395630 4.288170 -3.280486
v -37.353699 2.597140 5.286351
v -46.400444 3.000000 15.085553
v -55.073578 4.712432 12.707216
v -55.921379 3.249248 19.337181
v -46.799080 3.000000 19.767513
v -46.877792 3.336190 34.686111
v -56.017754 3.336190 34.630234
v -56.094173 5.431737 47.129997
v -46.954212 5.431737 47.185875
v -47.471443 0.000000 154.685501
v -47.471443 6.000000 154.685501
v -56.490067 0.000000 156.170914
v -56.490067 6.000000 156.170914
v -45.685886 0.000000 158.988358
v -45.685886 6.000000 158.988358
v -53.733578 0.000000 163.321579
v -53.733578 6.000000 163.321579
v -34.550438 0.000000 179.865753
v -34.550438 6.000000 179.865753
v -41.563469 0.000000 185.727448
v -41.563469 6.000000 185.727448
v -30.229502 0.000000 185.209991
v -30.229502 6.000000 185.209991
v -35.780846 0.000000 192.471161
v -35.780846 6.000000 192.471161
v -24.687271 0.000000 189.736450
v -24.687271 6.000000 189.736450
v -27.685902 0.000000 198.370697
v -27.685902 6.000000 198.370697
v -18.984419 0.000000 191.892944
v -18.984419 6.000000 191.892944
v -19.567049 0.000000 201.014496
v -19.567049 6.000000 201.014496
v -12.769444 0.000000 192.333893
v -12.769444 6.000000 192.333893
v -12.086112 0.000000 201.448456
v -12.086112 6.000000 201.448456
v 52.055508 0.000000 187.473450
v 52.055508 6.000000 187.473450
v 52.738838 0.000000 196.588013
v 52.738838 6.000000 196.588013
vt 0.375000 0.000000
vt 0.625000 0.000000
vt 0.625000 0.250000
vt 0.375000 0.250000
vt 0.375000 0.250000
vt 0.625000 0.250000
vt 0.625000 0.500000
vt 0.375000 0.500000
vt 0.375000 0.750000
vt 0.375000 1.000000
vt 0.375000 1.000000
vt 0.375000 0.750000
vt 0.625000 0.750000
vt 0.625000 1.000000
vt 0.375000 0.250000
vt 0.625000 0.250000
vt 0.625000 0.500000
vt 0.875000 0.500000
vt 0.875000 0.750000
vt 0.625000 0.250000
vt 0.625000 0.000000
vt 0.625000 0.000000
vt 0.625000 0.250000
vt 0.625000 0.500000
vt 0.875000 0.500000
vt 0.625000 0.500000
vt 0.375000 0.500000
vt 0.625000 0.500000
vt 0.375000 0.500000
vt 0.625000 0.500000
vt 0.875000 0.500000
vt 0.375000 1.000000
vt 0.375000 0.750000
vt 0.375000 0.750000
vt 0.375000 1.000000
vt 0.375000 1.000000
vt 0.375000 0.750000
vt 0.625000 0.250000
vt 0.625000 0.000000
vt 0.625000 0.000000
vt 0.625000 0.250000
vt 0.625000 0.250000
vt 0.625000 0.000000
vt 0.625000 0.000000
vt 0.625000 0.250000
vt 0.375000 0.500000
vt 0.625000 0.500000
vt 0.625000 0.500000
vt 0.625000 0.500000
vt 0.375000 0.500000
vt 0.875000 0.500000
vt 0.625000 0.500000
vt 0.625000 0.500000
vt 0.875000 0.500000
vt 0.875000 0.500000
vt 0.875000 0.500000
vt 0.625000 0.500000
vt 0.625000 0.500000
vt 0.875000 0.500000
vt 0.625000 0.500000
vt 0.625000 0.500000
vt 0.375000 0.500000
vt 0.875000 0.500000
vt 0.375000 1.000000
vt 0.375000 0.750000
vt 0.625000 0.250000
vt 0.625000 0.000000
vt 0.625000 0.000000
vt 0.625000 0.250000
vt 0.375000 1.000000
vt 0.375000 0.750000
vt 0.625000 0.500000
vt 0.375000 0.500000
vt 0.375000 0.500000
vt 0.625000 0.500000
vt 0.625000 0.500000
vt 0.625000 0.500000
vt 0.375000 0.500000
vt 0.625000 0.500000
vt 0.875000 0.500000
vt 0.375000 1.000000
vt 0.375000 0.750000
vt 0.875000 0.500000
vt 0.625000 0.500000
vt 0.625000 0.500000
vt 0.875000 0.500000
vt 0.875000 0.500000
vt 0.875000 0.500000
vt 0.375000 1.000000
vt 0.375000 0.750000
vt 0.625000 0.250000
vt 0.625000 0.000000
vt 0.625000 0.000000
vt 0.625000 0.250000
vt 0.625000 0.250000
vt 0.625000 0.000000
vt 0.625000 0.000000
vt 0.625000 0.250000
vt 0.375000 1.000000
vt 0.375000 0.750000
vt 0.625000 0.250000
vt 0.625000 0.000000
vt 0.625000 0.500000
vt 0.625000 0.500000
vt 0.375000 0.500000
vt 0.375000 0.500000
vt 0.625000 0.500000
vt 0.625000 0.500000
vt 0.625000 0.500000
vt 0.375000 0.500000
vt 0.625000 0.500000
vt 0.875000 0.500000
vt 0.375000 1.000000
vt 0.375000 0.750000
vt 0.625000 0.250000
vt 0.625000 0.000000
vt 0.625000 0.000000
vt 0.625000 0.250000
vt 0.625000 0.000000
vt 0.625000 0.250000
vt 0.625000 0.250000
vt 0.625000 0.000000
vt 0.625000 0.000000
vt 0.625000 0.250000
vt 0.625000 0.500000
vt 0.875000 0.500000
vt 0.875000 0.500000
vt 0.375000 1.000000
vt 0.375000 0.750000
vt 0.625000 0.250000
vt 0.625000 0.000000
vt 0.625000 0.000000
vt 0.625000 0.250000
vt 0.875000 0.500000
vt 0.625000 0.500000
vt 0.625000 0.500000
vt 0.875000 0.500000
vt 0.625000 0.500000
vt 0.625000 0.500000
vt 0.375000 0.500000
vt 0.875000 0.500000
vt 0.375000 1.000000
vt 0.375000 0.750000
vt 0.375000 0.750000
vt 0.375000 1.000000
vt 0.375000 1.000000
vt 0.375000 0.750000
vt 0.375000 1.000000
vt 0.375000 0.750000
vt 0.625000 0.000000
vt 0.625000 0.250000
vt 0.625000 0.500000
vt 0.375000 0.500000
vt 0.625000 0.500000
vt 0.625000 0.750000
vt 0.625000 0.750000
vt 0.625000 0.500000
vt 0.000000 0.000000
vt 0.000000 0.000000
vt 0.000000 0.000000
vt 0.000000 0.000000
vt 0.000000 0.000000
vt 0.000000 0.000000
vt 0.000000 0.000000
vt 0.000000 0.000000
vt 0.625000 0.250000
vt 0.625000 0.000000
vt 0.625000 0.000000
vt 0.625000 0.250000
vt 0.625000 0.500000
vt 0.625000 0.750000
vt 0.000000 0.000000
vt 0.000000 0.000000
vt 0.625000 0.500000
vt 0.625000 0.750000
vt 0.625000 0.750000
vt 0.625000 0.500000
vt 0.000000 0.000000
vt 0.000000 0.000000
vt 0.375000 1.000000
vt 0.375000 0.750000
vt 0.000000 0.000000
vt 0.000000 0.000000
vt 0.000000 0.000000
vt 0.000000 0.000000
vt 0.375000 1.000000
vt 0.375000 0.750000
vt 0.000000 0.000000
vt 0.000000 0.000000
vt 0.375000 0.750000
vt 0.375000 1.000000
vt 0.375000 1.000000
vt 0.375000 0.750000
vt 0.000000 0.000000
vt 0.000000 0.000000
vt 0.625000 0.750000
vt 0.625000 0.500000
vt 0.125000 0.500000
vt 0.375000 0.500000
vt 0.375000 0.750000
vt 0.125000 0.750000
vt 0.875000 0.750000
vt 0.625000 0.750000
vt 0.625000 1.000000
vt 0.375000 0.250000
vt 0.375000 0.000000
vt 0.625000 0.500000
vt 0.625000 0.750000
vt 0.625000 0.750000
vt 0.625000 0.500000
vt 0.000000 0.000000
vt 0.000000 0.000000
vt 0.000000 0.000000
vt 0.000000 0.000000
vt 0.000000 0.000000
vt 0.000000 0.000000
vt 0.000000 0.000000
vt 0.000000 0.000000
vt 0.375000 1.000000
vt 0.375000 0.750000
vt 0.000000 0.000000
vt 0.000000 0.000000
vt 0.625000 0.500000
vt 0.625000 0.750000
vt 0.625000 0.750000
vt 0.625000 0.500000
vt 0.000000 0.000000
vt 0.000000 0.000000
vt 0.375000 1.000000
vt 0.375000 0.750000
vt 0.375000 0.750000
vt 0.375000 1.000000
vt 0.375000 1.000000
vt 0.375000 0.750000
vt 0.000000 0.000000
vt 0.000000 0.000000
vt 0.000000 0.000000
vt 0.000000 0.000000
vt 0.000000 0.000000
vt 0.000000 0.000000
vt 0.000000 0.000000
vt 0.000000 0.000000
vt 0.000000 0.000000
vt 0.000000 0.000000
vt 0.625000 0.750000
vt 0.625000 0.500000
vt 0.625000 0.500000
vt 0.625000 0.750000
vt 0.625000 0.750000
vt 0.625000 0.500000
vt 0.000000 0.000000
vt 0.000000 0.000000
vt 0.375000 1.000000
vt 0.375000 0.750000
vt 0.000000 0.000000
vt 0.000000 0.000000
vt 0.000000 0.000000
vt 0.000000 0.000000
vt 0.375000 1.000000
vt 0.375000 0.750000
vt 0.000000 0.000000
vt 0.000000 0.000000
vt 0.375000 0.500000
vt 0.625000 0.500000
vt 0.625000 0.750000
vt 0.375000 0.750000
vt 0.000000 0.000000
vt 0.000000 0.000000
vt 0.375000 1.000000
vn 0.0475 0.9989 0.0000
vn 0.0000 1.0000 0.0000
vn 0.0000 0.0000 1.0000
vn 0.0000 -1.0000 0.0000
vn 0.0000 0.0000 -1.0000
vn 0.0985 0.9951 0.0000
vn 0.1961 0.9806 0.0000
vn 0.1948 0.9748 0.1086
vn 0.1875 0.9758 0.1128
vn 0.1532 0.9781 0.1408
vn 0.1536 0.9780 0.1409
vn 0.0837 0.9955 0.0440
vn 0.0873 0.9951 0.0468
vn 0.1819 0.9804 0.0750
vn 0.1723 0.9823 0.0739
vn 0.0077 -0.0000 1.0000
vn 0.1307 -0.0000 0.9914
vn 0.1237 -0.0000 0.9923
vn -0.0324 -0.0000 -0.9995
vn -0.1487 -0.0000 -0.9889
vn -0.1639 -0.0000 -0.9865
vn -0.4649 0.0430 -0.8843
vn -0.4563 0.0411 -0.8889
vn -0.7147 0.0712 -0.6958
vn -0.7322 0.0691 -0.6776
vn 0.2381 -0.0000 0.9712
vn 0.4404 -0.0000 0.8978
vn 0.4322 -0.0000 0.9018
vn -0.2630 0.0000 -0.9648
vn 0.1795 0.9744 0.1353
vn 0.1770 0.9747 0.1366
vn 0.1871 0.9766 0.1059
vn 0.1869 0.9769 0.1038
vn 0.7717 0.0000 0.6360
vn 0.7710 0.0000 0.6368
vn 0.9506 0.0000 0.3105
vn 0.9859 0.0000 0.1672
vn 0.9964 -0.0000 0.0843
vn -0.9123 0.0302 -0.4084
vn -0.9102 0.0310 -0.4130
vn -0.9927 0.0000 -0.1206
vn -0.9942 0.0000 -0.1077
vn -1.0000 0.0000 -0.0066
vn -1.0000 0.0000 -0.0067
vn -1.0000 0.0000 -0.0072
vn -0.9783 0.0000 -0.2071
vn 0.1407 0.9811 0.1325
vn 0.1456 0.9812 0.1268
vn 0.0738 0.9882 0.1339
vn 0.0738 0.9883 0.1338
vn 0.0062 0.9997 0.0246
vn 0.0002 0.9996 -0.0280
vn 0.0287 0.9972 0.0691
vn 0.0297 0.9971 0.0703
vn 1.0000 -0.0000 0.0008
vn 1.0000 -0.0000 0.0034
vn 1.0000 0.0000 0.0061
vn -1.0000 0.0000 -0.0061
vn 1.0000 0.0000 0.0000
vn -1.0000 0.0000 0.0000
vn 0.0018 0.9564 -0.2922
vn 0.0023 0.9266 -0.3761
vn 0.0005 0.9966 -0.0830
vn 0.0010 0.9867 -0.1628
vn 0.0024 0.9231 -0.3846
vn -0.0024 0.9191 0.3939
vn -0.0017 0.9597 0.2812
vn 0.0061 0.0000 -1.0000
vn -0.0061 0.0000 1.0000
vn -0.0005 0.9966 0.0825
vn -1.0000 0.0000 -0.0039
vn -1.0000 0.0000 0.0016
vn 1.0000 0.0000 0.0039
vn 0.9999 0.0000 0.0113
vn -1.0000 0.0000 -0.0034
vn 0.0948 0.9955 0.0000
vn 0.0586 0.9980 0.0240
vn -0.9827 0.0000 0.1853
vn 0.9827 0.0000 -0.1851
vn -0.9078 0.0000 0.4194
vn -0.8235 0.0000 0.5673
vn 0.9040 0.0000 -0.4274
vn 0.8337 0.0000 -0.5522
vn -0.6786 0.0000 0.7345
vn 0.7089 0.0000 -0.7054
vn -0.4549 0.0000 0.8905
vn -0.1853 0.0000 0.9827
vn 0.4996 0.0000 -0.8662
vn 0.2145 0.0000 -0.9767
vn 0.0084 0.0000 1.0000
vn 0.0748 0.0000 0.9972
vn -0.0020 0.0000 -1.0000
vn 0.9972 0.0000 -0.0748
vn -0.0748 0.0000 -0.9972
usemtl Material
s 1
f 1/1/1 5/2/2 7/3/2 3/4/1
f 4/5/3 3/6/3 7/7/3 8/8/3
f 6/9/4 8/10/4 10/11/4 9/12/4
f 6/9/4 2/13/4 4/14/4 8/10/4
f 3/6/3 4/5/3 92/15/3 91/16/3
f 6/17/5 5/18/5 1/19/5 2/13/5
f 11/20/6 12/21/6 16/22/7 15/23/7
f 7/3/2 5/2/2 12/21/6 11/20/6
f 5/18/5 6/17/5 9/24/5 12/25/5
f 8/8/3 7/7/3 11/26/3 10/27/3
f 10/27/3 11/26/3 15/28/3 14/29/3
f 12/25/5 9/24/5 13/30/5 16/31/5
f 9/12/4 10/11/4 14/32/4 13/33/4
f 17/34/4 18/35/4 22/36/4 21/37/4
f 13/33/4 14/32/4 18/35/4 17/34/4
f 96/38/8 95/39/9 28/40/10 27/41/11
f 94/42/12 93/43/13 24/44/14 23/45/15
f 18/46/16 19/47/16 94/48/16 23/49/17 22/50/18
f 20/51/19 17/52/19 21/53/20 24/54/21 93/55/19
f 28/56/22 25/57/23 29/58/24 32/59/25
f 22/50/18 23/49/17 96/60/26 27/61/27 26/62/28
f 24/54/21 21/53/20 25/57/23 28/56/22 95/63/29
f 21/37/4 22/36/4 26/64/4 25/65/4
f 31/66/30 32/67/31 36/68/32 35/69/33
f 25/65/4 26/64/4 30/70/4 29/71/4
f 27/41/11 28/40/10 32/67/31 31/66/30
f 26/62/28 27/61/27 31/72/34 30/73/35
f 34/74/36 35/75/36 97/76/37 39/77/38 38/78/38
f 30/73/35 31/72/34 35/75/36 34/74/36
f 32/59/25 29/58/24 33/79/39 36/80/40
f 29/71/4 30/70/4 34/81/4 33/82/4
f 40/83/41 37/84/42 41/85/43 44/86/44 99/87/45
f 36/80/40 33/79/39 37/84/42 40/83/41 98/88/46
f 33/82/4 34/81/4 38/89/4 37/90/4
f 97/91/47 98/92/48 40/93/49 39/94/50
f 43/95/51 44/96/51 48/97/52 47/98/52
f 37/90/4 38/89/4 42/99/4 41/100/4
f 100/101/53 99/102/54 44/96/51 43/95/51
f 38/78/38 39/77/38 100/103/55 43/104/56 42/105/56
f 46/106/57 47/107/57 101/108/57 55/109/57 54/110/57
f 42/105/56 43/104/56 47/107/57 46/106/57
f 44/86/44 41/85/43 45/111/58 48/112/58
f 41/100/4 42/99/4 46/113/4 45/114/4
f 49/115/2 50/116/2 52/117/2 51/118/2
f 20/119/59 19/120/59 51/118/59 52/117/59
f 15/23/60 16/22/60 50/116/60 49/115/60
f 104/121/61 103/122/61 60/123/62 59/124/62
f 48/112/58 45/111/58 53/125/58 56/126/58 102/127/58
f 45/114/4 46/113/4 54/128/4 53/129/4
f 101/130/63 102/131/63 56/132/64 55/133/64
f 60/134/58 57/135/58 61/136/58 64/137/58
f 54/110/57 55/109/57 104/138/57 59/139/57 58/140/57
f 56/126/58 53/125/58 57/135/58 60/134/58 103/141/58
f 53/129/4 54/128/4 58/142/4 57/143/4
f 65/144/4 66/145/4 74/146/4 73/147/4
f 57/143/4 58/142/4 62/148/4 61/149/4
f 59/124/62 60/123/62 64/150/65 63/151/65
f 58/140/57 59/139/57 63/152/57 62/153/57
f 67/154/66 68/155/66 76/156/67 75/157/67
f 61/149/4 62/148/4 66/145/4 65/144/4
f 68/158/58 65/159/58 73/160/58 76/161/58
f 66/162/57 67/163/57 75/164/57 74/165/57
f 69/166/2 70/167/2 72/168/2 71/169/2
f 68/155/68 67/154/68 71/170/68 72/171/68
f 63/151/69 64/150/69 70/167/69 69/166/69
f 74/165/57 75/164/57 78/172/57 77/173/57
f 78/174/70 80/175/70 84/176/2 82/177/2
f 76/161/58 73/160/58 79/178/58 80/179/58
f 75/157/67 76/156/67 80/175/70 78/174/70
f 73/147/4 74/146/4 77/180/4 79/181/4
f 84/182/71 83/183/71 87/184/72 88/185/72
f 79/181/4 77/180/4 81/186/4 83/187/4
f 80/179/58 79/178/58 83/183/71 84/182/71
f 77/173/57 78/172/57 82/188/73 81/189/73
f 87/190/4 85/191/4 105/192/4 107/193/4
f 81/189/73 82/188/73 86/194/74 85/195/74
f 82/177/2 84/176/2 88/196/2 86/197/2
f 83/187/4 81/186/4 85/191/4 87/190/4
f 62/148/56 69/166/56 71/169/56 66/145/56
f 61/149/75 65/144/75 72/168/75 70/167/75
f 13/33/5 17/34/5 52/117/5 50/116/5
f 14/32/3 49/115/3 51/118/3 18/35/3
f 90/198/3 89/199/3 91/200/3 92/201/3
f 2/13/5 1/19/5 89/202/5 90/203/5
f 4/14/4 2/13/4 90/203/4 92/204/4
f 1/1/1 3/4/1 91/205/76 89/206/76
f 47/98/52 48/97/52 102/131/63 101/130/63
f 55/133/64 56/132/64 103/122/61 104/121/61
f 39/94/50 40/93/49 99/102/54 100/101/53
f 35/69/33 36/68/32 98/92/48 97/91/47
f 19/120/77 20/119/77 93/43/13 94/42/12
f 23/45/15 24/44/14 95/39/9 96/38/8
f 106/207/2 108/208/2 112/209/2 110/210/2
f 88/185/72 87/184/72 107/211/78 108/212/78
f 85/195/74 86/194/74 106/213/79 105/214/79
f 86/197/2 88/196/2 108/208/2 106/207/2
f 112/215/80 111/216/80 115/217/81 116/218/81
f 107/193/4 105/192/4 109/219/4 111/220/4
f 108/212/78 107/211/78 111/216/80 112/215/80
f 105/214/79 106/213/79 110/221/82 109/222/82
f 114/223/2 116/224/2 120/225/2 118/226/2
f 109/222/82 110/221/82 114/227/83 113/228/83
f 110/210/2 112/209/2 116/224/2 114/223/2
f 111/220/4 109/219/4 113/229/4 115/230/4
f 119/231/4 117/232/4 121/233/4 123/234/4
f 115/230/4 113/229/4 117/232/4 119/231/4
f 116/218/81 115/217/81 119/235/84 120/236/84
f 113/228/83 114/227/83 118/237/85 117/238/85
f 124/239/86 123/240/86 127/241/87 128/242/87
f 120/236/84 119/235/84 123/240/86 124/239/86
f 117/238/85 118/237/85 122/243/88 121/244/88
f 118/226/2 120/225/2 124/245/2 122/246/2
f 126/247/2 128/248/2 132/249/2 130/250/2
f 121/244/88 122/243/88 126/251/89 125/252/89
f 122/246/2 124/245/2 128/248/2 126/247/2
f 123/234/4 121/233/4 125/253/4 127/254/4
f 132/255/90 131/256/90 135/257/91 136/258/91
f 127/254/4 125/253/4 129/259/4 131/260/4
f 128/242/87 127/241/87 131/256/90 132/255/90
f 125/252/89 126/251/89 130/261/92 129/262/92
f 133/263/93 134/264/93 136/265/93 135/266/93
f 129/262/92 130/261/92 134/267/94 133/268/94
f 130/250/2 132/249/2 136/265/2 134/264/2
f 131/260/4 129/259/4 133/269/4 135/266/4
