# Blender MTL File: 'OffTheRampCar.blend'
# Material Count: 2

newmtl Material.001
Ns 134.349166
Ka 1.000000 1.000000 1.000000
Kd 0.014670 0.014670 0.014670
Ks 0.045455 0.045455 0.045455
Ke 0.0 0.0 0.0
Ni 1.450000
d 1.000000
illum 2

newmtl Material.002
Ns 476.033086
Ka 0.852273 0.852273 0.852273
Kd 0.800000 0.800000 0.800000
Ks 0.869318 0.869318 0.869318
Ke 0.0 0.0 0.0
Ni 1.450000
d 1.000000
illum 3
