# Blender MTL File: 'OffTheRampCar.blend'
# Material Count: 2

newmtl Material.001
Ns 134.349166
Ka 1.000000 1.000000 1.000000
Kd 0.014670 0.014670 0.014670
Ks 0.045455 0.045455 0.045455
Ke 0.0 0.0 0.0
Ni 1.450000
d 1.000000
illum 2

newmtl Material.006
Ns 476.033086
Ka 0.909091 0.909091 0.909091
Kd 0.157434 0.157434 0.157434
Ks 0.869318 0.869318 0.869318
Ke 0.0 0.0 0.0
Ni 1.450000
d 1.000000
illum 3
