# Blender v2.80 (sub 74) OBJ File: 'OffTheRampCar.blend'
# www.blender.org
mtllib OffTheRampFrontHub.mtl
o Cube_Cube.001
v -0.478722 -0.307605 0.267251
v -0.290734 -0.277188 0.244570
v -0.299628 -0.241230 0.279616
v -0.482144 -0.272583 0.299798
v -0.379666 0.189909 0.256948
v -0.309305 0.197947 0.342386
v -0.290734 0.277188 0.255684
v -0.225083 -0.133264 -0.382598
v -0.112852 -0.125261 -0.465931
v -0.135173 -0.221052 -0.379317
v -0.135173 0.221052 -0.379317
v -0.112852 0.125261 -0.465931
v -0.225083 0.133264 -0.382598
v 0.171163 -0.276613 0.244624
v 0.258546 -0.189150 0.198284
v 0.188825 -0.241230 0.279616
v 0.171163 0.276613 0.255738
v 0.179148 0.197947 0.342386
v 0.258546 0.189150 0.255670
v 0.120166 -0.220701 -0.379283
v 0.112852 -0.125261 -0.465931
v 0.207561 -0.133251 -0.379215
v 0.120166 0.220701 -0.379283
v 0.207561 0.133251 -0.379215
v 0.112852 0.125261 -0.465931
v -0.442145 -0.277470 0.067721
v -0.423823 -0.243753 0.025797
v -0.315501 -0.163456 -0.083332
v -0.256056 -0.261159 0.020805
v -0.482144 -0.143582 0.299798
v -0.309305 -0.095000 0.285000
v -0.396596 -0.043867 0.201425
v -0.474363 -0.111210 0.238951
v -0.423823 -0.122243 0.025797
v -0.447398 -0.101485 0.096178
v -0.374300 -0.040439 0.087300
v -0.315501 -0.086440 -0.083332
v -0.818684 -0.369574 0.179794
v -0.842615 -0.351465 0.192858
v -0.825000 -0.345651 0.159426
v -0.788997 -0.364350 0.322797
v -0.777283 -0.344826 0.350709
v -0.814452 -0.345421 0.330243
v -0.839199 -0.278860 0.157321
v -0.859669 -0.275062 0.186540
v -0.830688 -0.245026 0.189948
v -0.792034 -0.269008 0.353542
v -0.798968 -0.241847 0.319923
v -0.828055 -0.270737 0.328090
vt 0.423543 0.528869
vt 0.576457 0.528869
vt 0.584752 0.721131
vt 0.415248 0.721131
vt 0.839888 0.715113
vt 0.825678 0.526056
vt 0.875000 0.520207
vt 0.875000 0.709226
vt 0.416709 0.125000
vt 0.416709 0.125000
vt 0.412937 0.125000
vt 0.420467 0.125000
vt 0.413093 1.000000
vt 0.420367 1.000000
vt 0.423401 1.000000
vt 0.410044 1.000000
vt 0.457276 0.147356
vt 0.499100 0.087527
vt 0.497600 0.037473
vt 0.585643 0.037473
vt 0.576209 0.227644
vt 0.423791 0.227644
vt 0.419094 0.147356
vt 0.426252 0.304434
vt 0.573748 0.304434
vt 0.573748 0.445566
vt 0.426252 0.445566
vt 0.674111 0.528090
vt 0.660756 0.720342
vt 0.458333 0.043281
vt 0.458333 0.081131
vt 0.458333 0.072171
vt 0.458333 0.052737
vt 0.174323 0.526056
vt 0.325889 0.528090
vt 0.339244 0.720342
vt 0.160112 0.715113
vt 0.161079 0.644207
vt 0.410081 0.055921
vt 0.423413 0.055921
vt 0.423080 0.069079
vt 0.410416 0.069079
vt 0.125000 0.706775
vt 0.125000 0.704710
vt 0.125000 0.739583
vt 0.125000 0.750000
vt 0.586819 0.000000
vt 0.625000 0.045290
vt 0.426252 0.250000
vt 0.375000 0.233453
vt 0.820566 0.500000
vt 0.375000 0.718360
vt 0.342153 0.750000
vt 0.657847 0.750000
vt 0.625000 0.718360
vt 0.320566 0.500000
vt 0.375000 0.526099
vt 0.625000 0.526099
vt 0.679434 0.500000
vt 0.125000 0.668850
vt 0.125000 0.625000
vt 0.125000 0.625000
vt 0.125000 0.626860
vt 0.458333 1.000000
vt 0.458333 1.000000
vt 0.458333 0.967153
vt 0.586819 0.967153
vt 0.583294 1.000000
vt 0.497656 1.000000
vt 0.125000 0.677448
vt 0.125000 0.672574
vt 0.125000 0.625000
vt 0.125000 0.697671
vt 0.125000 0.750000
vt 0.125000 0.685731
vt 0.458333 1.000000
vt 0.426595 1.000000
vt 0.413181 0.967153
vt 0.413181 0.782847
vt 0.586819 0.782847
vt 0.179434 0.500000
vt 0.157847 0.750000
vt 0.842153 0.750000
vt 0.125000 0.600494
vt 0.125000 0.520207
vt 0.413793 1.000000
vt 0.458333 0.000000
vt 0.458333 0.000000
vt 0.375000 0.125000
vt 0.375000 0.125000
vt 0.458333 1.000000
vn 0.9612 -0.1972 -0.1929
vn 0.9591 0.2102 -0.1895
vn 0.9811 0.1914 0.0266
vn 0.9795 -0.2003 0.0192
vn -0.1765 0.9843 0.0046
vn -0.1832 0.9609 -0.2078
vn -0.8923 0.2710 -0.3611
vn -0.9501 0.2712 -0.1540
vn -0.5003 0.3214 -0.8040
vn -0.3170 -0.3146 -0.8947
vn -0.2781 -0.2448 -0.9288
vn -0.4177 0.2950 -0.8594
vn 0.0337 -0.1610 0.9864
vn -0.0023 -0.0394 0.9992
vn -0.0138 0.3220 0.9466
vn 0.1567 -0.2278 0.9610
vn -0.9419 0.1080 -0.3180
vn -0.9487 0.1598 -0.2729
vn -0.9885 0.1137 -0.1001
vn -0.9162 -0.1015 -0.3878
vn -0.9227 -0.1471 -0.3564
vn -0.2112 -0.2078 -0.9551
vn -0.2112 0.2078 -0.9551
vn 0.2294 0.2154 -0.9492
vn 0.2294 -0.2154 -0.9492
vn 0.1871 0.9660 -0.1785
vn 0.1787 0.9833 0.0335
vn -0.3701 0.9092 0.1906
vn -0.4586 0.8724 -0.1693
vn -0.4170 0.9003 -0.1249
vn -0.3622 0.9174 0.1646
vn -0.1105 -0.9721 -0.2068
vn 0.1775 -0.9677 -0.1793
vn 0.1792 -0.9830 -0.0388
vn 0.0258 -0.9997 -0.0004
vn -0.0833 -0.9855 -0.1478
vn -0.8590 -0.3722 0.3514
vn -0.9262 0.1214 0.3571
vn -0.9907 0.1089 0.0816
vn -0.9180 -0.3879 0.0822
vn 0.1838 -0.9809 0.0632
vn 0.0034 -0.2005 0.9797
vn -0.0926 0.0328 0.9952
vn 0.1253 -0.1823 0.9752
vn 0.1227 0.0304 0.9920
vn 0.1100 -0.9667 -0.2309
vn -0.1011 -0.0919 0.9906
vn 0.1096 -0.9761 -0.1874
vn 0.1688 -0.9833 0.0682
usemtl Material.001
s 1
f 22/1/1 24/2/2 19/3/3 15/4/4
f 7/5/5 11/6/6 13/7/7 5/8/8
f 34/9/9 27/10/10 40/11/11 44/12/12
f 4/13/13 30/14/14 47/15/15 42/16/16
f 37/17/17 36/18/18 32/19/19 5/20/8 13/21/7 8/22/20 28/23/21
f 9/24/22 12/25/23 25/26/24 21/27/25
f 23/28/26 11/6/6 7/5/5 17/29/27
f 33/30/28 35/31/29 46/32/30 48/33/31
f 10/34/32 20/35/33 14/36/34 2/37/35 29/38/36
f 43/39/37 49/40/38 45/41/39 39/42/40
f 1/43/41 2/44/35 3/45/42 4/46/13
f 5/20/8 6/47/43 7/48/5
f 8/22/20 9/49/22 10/50/32
f 11/6/6 12/51/23 13/7/7
f 14/36/34 15/52/4 16/53/44
f 17/29/27 18/54/45 19/55/3
f 20/35/33 21/56/25 22/57/1
f 23/28/26 24/58/2 25/59/24
f 26/60/46 27/61/10 28/62/21 29/63/36
f 30/14/14 31/64/47 33/65/28
f 31/66/47 6/67/43 5/68/8 32/69/19
f 34/9/9 35/31/29 36/18/18 37/17/17
f 38/70/48 39/71/40 40/72/11
f 41/73/49 42/74/16 43/75/37
f 44/12/12 45/41/39 46/32/30
f 47/15/15 48/76/31 49/77/38
f 29/38/36 2/37/35 1/43/41 26/60/46
f 31/66/47 30/14/14 4/13/13 3/78/42 16/79/44 18/80/45 6/67/43
f 12/25/23 9/24/22 8/22/20 13/21/7
f 20/35/33 10/34/32 9/81/22 21/56/25
f 11/6/6 23/28/26 25/59/24 12/51/23
f 24/2/2 22/1/1 21/27/25 25/26/24
f 14/36/34 20/35/33 22/1/1 15/4/4
f 23/28/26 17/29/27 19/3/3 24/2/2
f 18/80/45 16/79/44 15/4/4 19/3/3
f 2/37/35 14/36/34 16/53/44 3/82/42
f 17/29/27 7/5/5 6/83/43 18/54/45
f 10/34/32 29/38/36 28/84/21 8/85/20
f 37/17/17 28/23/21 27/10/10 34/9/9
f 32/19/19 36/18/18 35/31/29 33/30/28
f 38/70/48 41/73/49 43/75/37 39/71/40
f 44/12/12 40/11/11 39/42/40 45/41/39
f 42/16/16 47/15/15 49/77/38 43/86/37
f 48/33/31 46/32/30 45/41/39 49/40/38
f 33/30/28 48/33/31 47/87/15 30/88/14
f 41/73/49 1/43/41 4/46/13 42/74/16
f 40/11/11 27/10/10 26/89/46 38/90/48
f 46/32/30 35/31/29 34/9/9 44/12/12
f 26/60/46 1/43/41 41/73/49 38/70/48
f 33/65/28 31/64/47 32/91/19
